{ "height":60,
 "layers":[
        {
         "data":[50, 64, 10, 13, 48, 46, 43, 71, 10, 28, 37, 76, 37, 65, 42, 75, 61, 1, 60, 23, 4, 45, 34, 21, 18, 3, 6, 61, 54, 24, 24, 7, 21, 3, 45, 12, 29, 72, 12, 81, 37, 5, 6, 66, 17, 44, 73, 72, 22, 48, 43, 28, 13, 77, 23, 12, 11, 36, 51, 74, 6, 9, 4, 53, 30, 75, 2, 76, 60, 47, 68, 41, 12, 52, 28, 27, 62, 13, 7, 29, 52, 60, 83, 35, 61, 15, 24, 16, 67, 54, 33, 77, 13, 26, 64, 37, 53, 26, 68, 79, 35, 54, 62, 77, 80, 4, 31, 7, 52, 50, 68, 11, 72, 12, 7, 84, 60, 5, 51, 76, 84, 60, 37, 63, 70, 77, 51, 45, 84, 16, 42, 58, 30, 19, 21, 44, 12, 21, 8, 41, 35, 29, 64, 55, 37, 74, 70, 4, 82, 74, 12, 1, 61, 30, 9, 50, 60, 62, 14, 78, 51, 18, 8, 50, 12, 9, 34, 2, 39, 23, 62, 71, 44, 38, 17, 20, 38, 54, 65, 31, 78, 43, 56, 62, 45, 60, 61, 44, 15, 27, 62, 1, 36, 13, 74, 77, 75, 16, 6, 68, 53, 77, 28, 37, 41, 60, 13, 14, 38, 19, 19, 17, 22, 79, 71, 62, 37, 81, 69, 80, 23, 30, 12, 13, 20, 22, 61, 67, 58, 78, 28, 32, 63, 48, 34, 28, 14, 24, 83, 73, 18, 74, 45, 71, 44, 64, 71, 58, 2, 69, 76, 20, 62, 25, 66, 51, 61, 56, 41, 8, 77, 42, 72, 2, 1, 31, 34, 54, 30, 56, 20, 83, 64, 44, 77, 65, 41, 58, 25, 19, 83, 33, 39, 2, 76, 16, 46, 10, 73, 74, 53, 52, 32, 32, 53, 57, 60, 47, 14, 32, 67, 14, 34, 50, 3, 55, 81, 72, 20, 8, 69, 18, 38, 4, 8, 74, 59, 21, 44, 11, 57, 83, 51, 68, 48, 72, 36, 57, 61, 13, 65, 57, 81, 44, 10, 21, 1, 27, 84, 64, 68, 2, 34, 73, 81, 46, 9, 74, 6, 56, 10, 10, 7, 33, 81, 28, 61, 25, 12, 6, 71, 80, 38, 84, 67, 23, 32, 30, 68, 75, 41, 23, 29, 43, 64, 13, 45, 29, 2, 6, 39, 37, 23, 12, 52, 3, 5, 72, 21, 1, 75, 45, 60, 15, 50, 52, 73, 61, 56, 8, 38, 46, 57, 73, 40, 52, 54, 9, 47, 35, 32, 55, 26, 20, 77, 31, 62, 52, 69, 47, 41, 56, 19, 54, 43, 66, 48, 77, 23, 59, 60, 81, 26, 62, 52, 64, 59, 63, 16, 18, 78, 79, 17, 5, 60, 66, 7, 59, 83, 70, 78, 9, 55, 56, 19, 55, 47, 61, 70, 5, 25, 15, 70, 17, 9, 71, 30, 1, 66, 1, 46, 31, 41, 29, 30, 80, 58, 63, 36, 9, 83, 21, 5, 64, 1, 73, 78, 22, 23, 43, 10, 21, 9, 68, 76, 49, 37, 84, 52, 11, 65, 71, 51, 61, 82, 39, 2, 84, 17, 18, 61, 22, 65, 48, 16, 33, 84, 2, 29, 56, 12, 76, 36, 60, 15, 79, 64, 35, 64, 17, 84, 53, 28, 57, 61, 29, 16, 18, 74, 12, 30, 4, 76, 65, 4, 19, 10, 37, 4, 81, 12, 17, 11, 2, 18, 32, 30, 10, 49, 75, 44, 18, 78, 53, 41, 84, 55, 74, 49, 13, 27, 53, 81, 72, 3, 1, 82, 84, 63, 51, 47, 61, 60, 74, 51, 57, 69, 45, 29, 37, 81, 74, 59, 75, 37, 19, 57, 50, 27, 17, 62, 13, 67, 18, 14, 49, 51, 65, 40, 60, 30, 73, 63, 47, 79, 30, 84, 54, 73, 26, 50, 39, 58, 37, 51, 66, 29, 36, 15, 3, 29, 10, 5, 28, 50, 21, 80, 27, 34, 72, 16, 15, 76, 21, 43, 82, 79, 16, 30, 13, 83, 66, 57, 35, 81, 26, 72, 51, 15, 10, 49, 48, 12, 45, 56, 3, 40, 57, 83, 42, 66, 31, 30, 8, 43, 2, 29, 38, 72, 40, 18, 50, 51, 75, 63, 68, 1, 54, 13, 44, 59, 14, 78, 12, 44, 70, 63, 83, 35, 74, 26, 11, 27, 15, 20, 24, 2, 20, 79, 55, 3, 80, 42, 71, 39, 49, 45, 61, 76, 48, 7, 23, 25, 37, 39, 42, 70, 54, 16, 26, 65, 39, 65, 28, 33, 47, 63, 34, 29, 53, 65, 12, 45, 64, 2, 81, 27, 67, 20, 70, 21, 32, 70, 59, 59, 32, 23, 74, 23, 15, 34, 39, 15, 11, 73, 56, 49, 75, 39, 15, 1, 69, 44, 49, 58, 28, 24, 62, 81, 23, 23, 9, 54, 27, 56, 11, 30, 27, 56, 57, 84, 60, 78, 29, 2, 71, 69, 70, 73, 34, 79, 32, 28, 63, 30, 8, 75, 26, 8, 27, 15, 81, 36, 3, 20, 33, 26, 19, 84, 39, 61, 21, 50, 52, 5, 19, 64, 20, 40, 32, 17, 1, 27, 39, 81, 28, 37, 7, 68, 53, 74, 25, 23, 5, 61, 2, 49, 32, 53, 64, 66, 62, 35, 6, 31, 30, 41, 47, 71, 78, 53, 61, 48, 40, 84, 71, 53, 19, 73, 70, 64, 44, 52, 12, 16, 54, 45, 53, 41, 61, 61, 35, 41, 51, 80, 65, 12, 60, 48, 84, 33, 79, 28, 25, 5, 44, 28, 55, 58, 75, 69, 58, 40, 48, 9, 46, 5, 7, 37, 67, 43, 61, 73, 21, 8, 47, 11, 75, 18, 19, 43, 61, 23, 67, 62, 56, 46, 60, 71, 32, 2, 53, 2, 17, 29, 23, 47, 83, 53, 29, 55, 83, 32, 31, 25, 77, 15, 9, 44, 64, 19, 39, 61, 15, 66, 8, 71, 53, 51, 41, 57, 79, 32, 12, 54, 53, 6, 79, 9, 26, 28, 46, 71, 2, 72, 64, 27, 56, 64, 75, 13, 27, 82, 13, 35, 56, 50, 2, 4, 27, 21, 52, 22, 21, 44, 7, 68, 9, 22, 79, 43, 54, 2, 41, 41, 4, 32, 15, 52, 29, 29, 80, 75, 65, 62, 55, 66, 13, 46, 36, 54, 20, 25, 1, 2, 11, 37, 17, 11, 53, 62, 13, 10, 52, 52, 68, 44, 37, 48, 21, 52, 21, 41, 6, 66, 37, 6, 65, 75, 79, 52, 72, 19, 15, 27, 12, 7, 31, 55, 63, 56, 17, 20, 2, 55, 76, 60, 45, 54, 72, 52, 79, 4, 40, 21, 74, 84, 8, 44, 74, 16, 73, 73, 14, 65, 49, 9, 47, 17, 49, 28, 32, 13, 51, 63, 24, 29, 60, 49, 15, 39, 10, 78, 5, 2, 5, 57, 75, 18, 60, 27, 43, 68, 4, 73, 41, 3, 57, 61, 82, 36, 65, 45, 51, 63, 77, 10, 32, 66, 82, 21, 44, 26, 84, 52, 30, 75, 5, 58, 16, 70, 14, 44, 14, 82, 8, 61, 16, 51, 26, 22, 63, 30, 67, 32, 21, 41, 47, 66, 1, 20, 22, 82, 47, 75, 40, 39, 59, 53, 82, 68, 18, 84, 56, 8, 20, 17, 82, 21, 51, 43, 22, 39, 23, 54, 12, 50, 54, 9, 79, 37, 82, 55, 79, 17, 65, 45, 76, 72, 8, 83, 28, 39, 82, 46, 76, 52, 70, 37, 69, 65, 65, 80, 17, 55, 84, 69, 37, 50, 16, 48, 49, 79, 74, 80, 63, 34, 69, 22, 34, 38, 28, 61, 71, 58, 62, 76, 43, 18, 60, 3, 31, 84, 51, 37, 25, 23, 77, 70, 39, 75, 49, 67, 59, 61, 33, 6, 70, 83, 30, 19, 12, 37, 38, 8, 48, 60, 27, 18, 17, 58, 10, 1, 63, 80, 40, 81, 84, 52, 44, 47, 55, 18, 67, 6, 22, 46, 1, 45, 84, 47, 6, 45, 53, 18, 69, 12, 30, 33, 1, 64, 57, 62, 9, 84, 21, 46, 18, 46, 70, 56, 78, 8, 7, 24, 17, 12, 40, 79, 20, 74, 15, 21, 31, 12, 74, 76, 77, 15, 62, 41, 6, 50, 17, 28, 63, 17, 77, 39, 43, 78, 46, 32, 34, 52, 61, 3, 71, 83, 74, 52, 40, 38, 10, 41, 8, 2, 9, 2, 39, 14, 80, 42, 20, 59, 73, 29, 71, 8, 16, 43, 50, 73, 35, 81, 79, 83, 67, 41, 46, 41, 25, 60, 44, 78, 83, 38, 65, 62, 38, 10, 32, 54, 10, 6, 82, 83, 55, 1, 8, 13, 29, 27, 51, 75, 36, 41, 1, 63, 47, 36, 76, 33, 8, 77, 22, 1, 42, 77, 75, 58, 61, 81, 64, 66, 52, 48, 32, 24, 19, 49, 17, 18, 18, 43, 81, 81, 19, 82, 6, 60, 26, 5, 84, 65, 16, 56, 53, 83, 62, 75, 54, 6, 26, 37, 76, 1, 10, 78, 69, 39, 51, 29, 60, 5, 71, 31, 20, 72, 72, 9, 37, 71, 48, 15, 80, 76, 60, 82, 45, 58, 3, 32, 76, 66, 43, 6, 24, 38, 49, 34, 25, 48, 1, 21, 69, 42, 64, 76, 72, 80, 72, 83, 37, 73, 23, 20, 40, 26, 70, 38, 52, 23, 1, 30, 14, 54, 74, 38, 79, 3, 82, 76, 11, 55, 11, 38, 15, 15, 31, 16, 59, 56, 68, 48, 23, 30, 43, 14, 33, 55, 30, 50, 24, 76, 77, 35, 72, 25, 28, 81, 39, 65, 18, 19, 76, 73, 39, 63, 17, 50, 18, 42, 43, 28, 54, 61, 3, 57, 75, 70, 68, 27, 76, 23, 63, 4, 62, 24, 84, 12, 41, 34, 19, 69, 83, 74, 83, 51, 68, 41, 38, 46, 31, 50, 68, 42, 17, 55, 53, 47, 41, 43, 20, 35, 24, 64, 4, 60, 84, 19, 1, 38, 59, 16, 81, 32, 47, 74, 81, 24, 13, 70, 60, 41, 74, 15, 76, 8, 29, 11, 53, 40, 59, 25, 60, 48, 3, 5, 10, 27, 64, 82, 25, 83, 83, 11, 49, 47, 74, 42, 47, 9, 3, 31, 38, 17, 74, 55, 40, 20, 1, 29, 19, 70, 51, 66, 4, 18, 65, 12, 33, 48, 81, 62, 22, 35, 22, 34, 42, 51, 8, 24, 6, 56, 57, 74, 11, 75, 66, 59, 82, 81, 51, 32, 20, 56, 76, 9, 45, 67, 77, 40, 36, 84, 19, 35, 20, 58, 51, 2, 78, 73, 79, 39, 84, 6, 6, 69, 30, 14, 55, 83, 14, 25, 7, 46, 62, 58, 29, 54, 36, 50, 73, 69, 42, 10, 36, 80, 80, 11, 2, 10, 39, 7, 61, 34, 21, 80, 48, 73, 75, 6, 37, 29, 24, 2, 78, 32, 36, 44, 17, 4, 33, 20, 77, 73, 10, 62, 4, 57, 29, 29, 66, 41, 36, 81, 34, 29, 25, 3, 14, 21, 19, 29, 50, 32, 57, 39, 18, 30, 80, 61, 49, 47, 43, 36, 55, 77, 39, 15, 1, 48, 19, 42, 21, 24, 78, 20, 32, 68, 66, 76, 15, 22, 39, 4, 44, 40, 38, 55, 73, 35, 38, 41, 44, 45, 64, 44, 6, 10, 50, 21, 63, 61, 44, 8, 67, 43, 69, 67, 72, 51, 71, 61, 28, 42, 33, 30, 65, 38, 8, 46, 21, 68, 69, 81, 61, 33, 80, 39, 35, 77, 75, 36, 17, 24, 29, 15, 81, 6, 61, 28, 83, 67, 43, 14, 26, 29, 55, 3, 11, 30, 78, 58, 13, 47, 28, 59, 83, 62, 40, 81, 62, 55, 15, 35, 55, 6, 22, 45, 33, 19, 48, 10, 61, 38, 21, 84, 52, 3, 51, 74, 15, 6, 83, 18, 40, 29, 55, 8, 36, 20, 55, 11, 58, 47, 60, 27, 43, 37, 7, 77, 54, 18, 38, 25, 13, 25, 65, 72, 31, 3, 17, 74, 59, 51, 75, 34, 47, 75, 79, 10, 15, 27, 20, 16, 47, 67, 27, 16, 23, 46, 23, 81, 33, 80, 52, 38, 26, 44, 12, 55, 59, 57, 67, 34, 24, 58, 50, 28, 68, 41, 38, 58, 71, 50, 7, 21, 59, 1, 72, 12, 24, 84, 83, 11, 48, 2, 30, 61, 11, 80, 44, 37, 48, 44, 36, 79, 16, 57, 70, 3, 22, 58, 50, 2, 33, 41, 14, 8, 77, 7, 72, 56, 21, 78, 26, 68, 26, 24, 65, 49, 69, 50, 49, 34, 65, 75, 36, 41, 59, 9, 69, 12, 13, 45, 36, 15, 1, 11, 35, 24, 72, 77, 76, 37, 33, 29, 23, 16, 66, 60, 47, 10, 3, 39, 70, 15, 32, 55, 48, 6, 54, 21, 5, 54, 53, 44, 59, 18, 40, 39, 39, 83, 4, 9, 17, 38, 25, 78, 6, 57, 56, 19, 73, 64, 35, 41, 38, 58, 48, 18, 10, 72, 80, 56, 69, 26, 56, 27, 58, 4, 6, 11, 23, 59, 7, 12, 11, 39, 12, 31, 65, 74, 5, 55, 45, 68, 75, 47, 33, 20, 67, 18, 78, 16, 78, 22, 9, 49, 29, 53, 20, 9, 67, 40, 66, 9, 57, 5, 24, 39, 76, 49, 18, 38, 60, 9, 69, 50, 51, 33, 7, 52, 18, 66, 42, 19, 13, 8, 84, 4, 75, 41, 71, 41, 57, 26, 38, 49, 30, 2, 28, 76, 22, 4, 73, 38, 10, 52, 26, 37, 72, 61, 47, 26, 49, 75, 6, 38, 28, 14, 62, 17, 15, 63, 69, 39, 5, 38, 41, 42, 43, 40, 41, 10, 2, 70, 35, 61, 12, 55, 51, 45, 71, 51, 42, 83, 73, 20, 2, 9, 14, 32, 82, 72, 18, 40, 31, 45, 37, 2, 72, 13, 46, 76, 5, 66, 76, 62, 80, 83, 80, 26, 22, 11, 47, 79, 69, 65, 30, 68, 81, 7, 16, 32, 71, 14, 37, 63, 76, 40, 32, 5, 13, 12, 54, 68, 52, 33, 40, 24, 56, 77, 18, 76, 35, 19, 51, 52, 8, 3, 16, 22, 34, 53, 58, 78, 77, 24, 32, 31, 38, 47, 36, 29, 35, 63, 29, 51, 77, 3, 44, 37, 44, 64, 35, 59, 43, 16, 61, 45, 84, 11, 30, 75, 53, 15, 60, 39, 44, 50, 49, 49, 10, 16, 84, 84, 4, 16, 14, 73, 84, 9, 22, 46, 53, 53, 30, 41, 35, 39, 26, 14, 45, 22, 49, 71, 60, 37, 14, 49, 13, 9, 34, 83, 30, 74, 79, 16, 3, 70, 45, 53, 82, 24, 80, 1, 77, 64, 71, 10, 32, 67, 54, 62, 54, 73, 32, 41, 42, 20, 52, 62, 21, 69, 27, 35, 38, 6, 57, 84, 76, 74, 2, 20, 40, 35, 59, 15, 82, 1, 82, 79, 11, 18, 75, 71, 49, 61, 10, 71, 63, 38, 54, 49, 40, 69, 21, 7, 8, 49, 31, 73, 60, 8, 34, 24, 55, 67, 14, 77, 66, 43, 17, 77, 77, 70, 16, 37, 16, 46, 25, 81, 35, 79, 49, 60, 41, 19, 29, 81, 60, 75, 45, 44, 21, 8, 7, 82, 34, 1, 24, 15, 7, 20, 19, 48, 9, 12, 8, 47, 53, 23, 48, 75, 41, 56, 19, 3, 47, 27, 76, 48, 18, 41, 2, 45, 49, 7, 5, 67, 1, 4, 70, 41, 35, 63, 77, 25, 53, 27, 2, 74, 70, 5, 30, 24, 72, 11, 65, 40, 45, 81, 78, 66, 33, 8, 64, 44, 45, 21, 66, 57, 57, 71, 55, 28, 13, 74, 6, 49, 63, 63, 53, 31, 48, 14, 58, 33, 80, 4, 23, 81, 28, 28, 78, 76, 6, 76, 49, 34, 34, 39, 39, 72, 22, 32, 80, 70, 14, 50, 36, 72, 9, 39, 15, 29, 34, 55, 25, 37, 50, 1, 41, 77, 26, 39, 84, 2, 10, 70, 41, 35, 39, 64, 72, 81, 39, 50, 16, 56, 73, 17, 50, 42, 71, 76, 4, 29, 78, 28, 29, 66, 72, 23, 75, 5, 39, 51, 54, 73, 45, 9, 67, 44, 73, 25, 62, 13, 26, 46, 8, 29, 78, 3, 50, 1, 65, 84, 80, 52, 47, 82, 17, 47, 83, 7, 6, 46, 15, 36, 34, 78, 84, 39, 38, 12, 40, 36, 27, 84, 11, 52, 29, 13, 33, 70, 33, 36, 82, 63, 26, 14, 17, 23, 24, 56, 36, 76, 16, 42, 35, 12, 83, 79, 56, 72, 8, 23, 71, 54, 63, 21, 11, 17, 34, 33, 50, 61, 8, 34, 47, 24, 68, 44, 1, 14, 72, 80, 80, 22, 22, 12, 64, 40, 11, 22, 52, 4, 1, 41, 66, 82, 25, 38, 10, 30, 48, 20, 3, 70, 45, 80, 32, 56, 6, 13, 72, 80, 24, 59, 23, 53, 78, 48, 70, 57, 7, 62, 77, 6, 80, 8, 5, 47, 70, 23, 62, 51, 74, 44, 27, 22, 8, 55, 72, 2, 8, 67, 3, 56, 7, 33, 1, 20, 54, 84, 24, 66, 57, 16, 52, 29, 19, 34, 70, 64, 34, 72, 63, 49, 17, 33, 4, 78, 37, 32, 10, 30, 49, 46, 83, 65, 54, 75, 11, 20, 4, 48, 32, 77, 42, 61, 67, 76, 76, 31, 47, 13, 14, 25, 69, 22, 12, 79, 49, 36, 38, 20, 47, 26, 34, 42, 84, 51, 29, 69, 32, 12, 71, 71, 57, 40, 42, 32, 9, 28, 21, 28, 35, 34, 68, 61, 32, 56, 5, 9, 6, 68, 34, 75, 27, 47, 13, 63, 4, 9, 78, 81, 52, 38, 82, 70, 23, 66, 50, 2, 39, 71, 40, 81, 18, 28, 10, 17, 48, 20, 12, 67, 74, 23, 62, 56, 18, 16, 83, 1, 65, 15, 21, 52, 16, 22, 47, 27, 80, 54, 82, 24, 67, 7, 80, 38, 2, 24, 62, 76, 77, 23, 64, 17, 9, 64, 79, 66, 78, 43, 11, 30, 70, 63, 40, 19, 62, 42, 63, 62, 34, 72, 4, 73, 80, 47, 54, 82, 15, 60, 75, 46, 70, 55, 77, 51, 47, 72, 5, 72, 48, 77, 57, 44, 51, 34, 7, 16, 65, 59, 34, 66, 36, 77, 35, 27, 1, 62, 41, 73, 84, 28, 34, 34, 61, 17, 21, 56, 21, 3, 25, 4, 22, 54, 74, 39, 81, 65, 22, 19, 76, 3, 42, 79, 73, 61, 30, 30, 67, 63, 10, 19, 49, 39, 46, 19, 2, 48, 57, 68, 53, 83, 61, 5, 47, 58, 83, 51, 37, 55, 57, 39, 25, 58, 68, 79, 31, 25, 7, 40, 2, 48, 65, 45, 54, 8, 3, 39, 65, 6, 32, 8, 67, 64, 1, 14, 11, 66, 45, 21, 12, 18, 75, 28, 19, 28, 66, 23, 17, 76, 1, 9, 58, 49, 71, 39, 42, 25, 39, 77, 81, 53, 19, 32, 30, 14, 13, 39, 20, 74, 18, 73, 74, 46, 63, 62, 45, 3, 71, 5, 79, 65, 59, 1, 52, 5, 83, 31, 19, 38, 21, 70, 2, 15, 22, 40, 15, 39, 35, 4, 10, 79, 6, 31, 84, 83, 83, 63, 84, 12, 51, 25, 61, 38, 46, 29, 49, 74, 71, 67, 11, 52, 38, 43, 44, 44, 44, 58, 67, 40, 71, 16, 66, 4, 10, 17, 48, 42, 9, 59, 30, 34, 65, 42, 45, 26, 74, 27, 17, 50, 63, 59, 77, 33, 15, 68, 54, 35, 22, 33, 50, 73, 26, 50, 12, 27, 58, 70, 54, 46, 62, 62, 28, 36, 49, 78, 20, 71, 7, 81, 84, 44, 54, 18, 64, 75, 11, 58, 6, 1, 60, 79, 61, 35, 67, 79, 55, 83, 68, 81, 68, 70, 14, 35, 84, 16, 8, 67, 69, 19, 42, 41, 42, 1, 75, 55, 65, 27, 16, 13, 62, 43, 57, 31, 66, 40, 67, 8, 36, 34, 7, 36, 15, 62, 2, 53, 26, 34, 44, 36, 17, 14, 78, 54, 7, 44, 20, 42, 59, 76, 6, 34, 8, 69, 39, 7, 77, 24, 23, 77, 68, 11, 46, 23, 69, 34, 75, 84, 60, 65, 72, 56, 36, 72, 25, 2, 29, 53, 66, 31, 65, 65, 79, 75, 20, 7, 67, 5, 77, 69, 20, 1, 83, 8, 28, 77, 82, 18, 59, 29, 17, 9, 77, 56, 6, 55, 71, 32, 45, 9, 5, 47, 32, 36, 16, 12, 56, 54, 27, 32, 6, 26, 28, 14, 25, 65, 26, 37, 33, 53, 74, 46, 15, 5, 53, 50, 49, 20, 39, 75, 6, 78, 47, 79, 63, 11, 19, 39, 11, 53, 82, 75, 15, 41, 33, 65, 36, 79, 62, 28, 51, 33, 75, 27, 38, 19, 15, 82, 51, 57, 22, 66, 41, 63, 2, 38, 12, 6, 36, 61, 15, 61, 35, 25, 48, 16, 63, 55, 50, 18, 76, 81, 57, 51, 80, 81, 20, 19, 37, 67, 52, 63, 19, 79, 81, 55, 32, 3, 1, 83, 8, 66, 5, 26, 42, 71, 69, 48, 47, 54, 21, 77, 80, 25, 38, 56, 82, 42, 51, 8, 28, 31, 61, 30, 11, 26, 54, 30, 53, 77, 70, 52, 17, 74, 24, 12, 38, 4, 20, 46, 82, 13, 47, 40, 28, 70, 55, 23, 36, 70, 74, 60, 34, 67, 47, 11, 9, 51, 27, 65, 27, 61, 45, 16, 25, 54, 51, 52, 84, 14, 38, 28, 47, 73, 63, 2, 52, 36, 37, 16, 62, 1, 2, 43, 58, 54, 80, 18, 79, 48, 84, 36, 80, 58, 56, 50, 50, 70, 44, 71, 39, 20, 50, 29, 30, 72, 62, 57, 46, 64, 84, 19, 18, 41, 3, 47, 68, 40, 36, 67, 34, 30, 9, 81, 10, 33, 60, 33, 38, 72, 80, 9, 57, 28, 82, 12, 15, 15, 67, 83, 76, 9, 9, 73, 59, 78, 66, 19, 17, 32, 65, 17, 13, 74, 28, 68, 67, 2, 15, 18, 62, 40, 23, 48, 68, 73, 65, 77, 80, 53, 74, 6, 6, 76, 57, 39, 78, 35, 7, 5, 3, 25, 54, 15, 41, 5, 40, 36, 73, 30, 8, 44, 7, 79, 26, 19, 27, 44, 8, 11, 70, 52, 41, 54, 72, 36, 33, 66, 42, 64, 47, 5, 48, 72, 31, 34, 43, 21, 64, 83, 19, 61, 6, 10, 80, 7, 80, 8, 18, 10, 17, 13, 48, 36, 56, 19, 52, 25, 9, 77, 64, 50, 7, 29, 13, 54, 56, 70, 43, 63, 5, 71, 61, 56, 50, 40, 63, 55, 64, 12, 19, 14, 42, 81, 37, 53, 41, 18, 53, 64, 52, 56, 29, 82, 22, 82, 77, 63, 61, 3, 62, 84, 51, 31, 56, 38, 11, 43, 34, 3, 49, 31, 77, 20, 54, 50, 60, 40, 66, 83, 25, 40, 54, 68, 43, 59, 30, 21, 78, 51, 1, 60, 18, 13, 79, 20, 41, 7, 15, 74, 62, 26, 63, 4, 14, 31, 8, 78, 47, 56, 40, 68, 59, 83, 22, 43, 57, 64, 33, 58, 28, 41, 58, 25, 51, 11, 23, 74, 74, 38, 77, 25, 5, 11, 21, 60, 52, 1, 19, 6, 13, 1, 25, 58, 71, 82, 32, 54, 50, 79, 51, 57, 80, 4, 12, 4, 78, 35, 8, 34, 79, 82, 32, 60, 53, 32, 49, 4, 63, 73, 72, 43, 5, 12, 66, 11, 16, 21, 21, 57, 42, 38, 27, 52, 83, 6, 12, 76, 11, 37, 63, 76, 65, 57, 2, 20, 3, 55, 42, 61, 10, 68, 24, 14, 19, 4, 76, 24, 37, 52, 19, 48, 50, 83, 20, 14, 10, 58, 4, 62, 80, 19, 55, 30, 34, 81, 74, 31, 1, 79, 19, 22, 38, 69, 62, 46, 36, 34, 50, 67, 1, 60, 19, 58, 21, 84, 39, 82, 57, 60, 22, 67, 42, 8, 79, 66, 83, 40, 45, 33, 68, 64, 18, 23, 38, 59, 53, 54, 49, 29, 24, 60, 34, 32, 78, 84, 3, 43, 77, 60, 76, 68, 50, 14, 11, 13, 55, 10, 71, 45, 46, 14, 53, 40, 70, 7, 72, 33, 44, 23, 6, 81, 46, 3, 31, 43, 2, 5, 66, 32, 59, 58, 51, 25, 26, 31, 72, 64, 81, 1, 47, 36, 40, 29, 16, 38, 66, 25, 84, 74, 28, 32, 36, 3, 35, 7, 40, 74, 45, 15, 3, 66, 12, 77, 40, 46, 75, 43, 20, 35, 41, 74, 34, 32, 55, 65, 51, 34, 69, 71, 5, 25, 84, 45, 44, 50, 55, 81, 11, 38, 47, 64, 22, 42, 57, 1, 38, 59, 6, 5, 20, 22, 62, 37, 3, 43, 40, 60, 3, 61, 68, 31, 4, 4, 69, 57, 32, 29, 4, 47, 65, 8, 29, 43, 16, 22, 65, 36, 60, 11, 37, 41, 41, 21, 36, 4, 41, 22, 54, 42, 40, 65, 55, 13, 73, 21, 53, 10, 46, 76, 17, 12, 67, 45, 24, 46, 15, 36, 2, 4, 32, 17, 51, 55, 7, 62, 54, 57, 11, 37, 52, 26, 2, 7, 49, 52, 18, 21, 67, 10, 62, 72, 50, 18, 71, 77, 63, 50, 35, 75, 73, 52, 29, 9, 60, 56, 76, 10, 53, 46, 8, 5, 77, 69, 7, 3, 13, 19, 41, 43, 54, 4, 72, 54, 61, 37, 80, 61, 18, 74, 15, 41, 58, 41, 79, 44, 81, 33, 2, 53, 32, 15, 81, 19, 22, 15, 34, 58, 18, 75, 43, 61, 44, 30, 29, 66, 49, 44, 14, 35, 16, 51, 77, 51, 81, 41, 43, 18, 60, 8, 19, 28, 69, 63, 12, 51, 51, 47, 34, 58, 57, 17, 3, 35, 15, 77, 45, 47, 76, 23, 80, 20, 15, 66, 53, 66, 10, 68, 15, 65, 46, 28, 29, 72, 73, 80, 79, 62, 82, 55, 53, 80, 6, 64, 73, 67, 48, 63, 67, 16, 2, 15, 2, 44, 73, 45, 50, 48, 38, 7, 69, 30, 65, 69, 15, 2, 40, 20, 11, 58, 52, 27, 7, 30, 53, 27, 17, 65, 12, 57, 25, 26, 72, 76, 59, 69, 40, 36, 14, 44, 42, 41, 59, 76, 14, 84, 40, 46, 25, 38, 57, 2, 14, 63, 34, 68, 35, 9, 43, 7, 71, 78, 44, 56, 34, 56, 84, 71, 77, 75, 29, 69, 74, 57, 48, 53, 21, 75, 6, 61, 3, 56, 68, 64, 43, 2, 60, 78, 49, 13, 4, 28, 16, 78, 63, 32, 56, 14, 73, 14, 9, 4, 76, 69, 62, 43, 14, 77, 26, 48, 17, 66, 41, 65, 9, 83, 14, 42, 79, 49, 78, 30, 9, 49, 27, 49, 59, 24, 28, 33, 76, 56, 57, 31, 30, 64, 22, 69, 43, 1, 38, 16, 4, 57, 46, 32, 18, 13, 10, 14, 17, 37, 28, 47, 47, 35, 36, 15, 44, 24, 1, 53, 34, 75, 37, 76, 84, 15, 21, 57, 75, 9, 75, 49, 84, 4, 53, 15, 10, 36, 48, 80, 13, 15, 77, 83, 26, 42, 27, 46, 17, 59, 70, 82, 62, 10, 58, 48, 81, 82, 20, 37, 2, 21, 71, 33, 79, 47, 56, 69, 43, 84, 54, 46, 20, 9, 24, 61, 12, 54, 51, 60, 57, 42, 79, 78, 47, 50, 74, 61, 58, 60, 9, 26, 2, 36, 24, 48, 34, 77, 78, 82, 40, 75, 25, 35, 48, 36, 19, 12, 43, 74, 4, 47, 51, 60, 38, 15, 32, 36, 28, 38, 50, 33, 60, 55, 83, 63, 49, 62, 22, 22, 66, 21, 74, 17, 66, 35, 4, 11, 69, 1, 62, 44, 60, 35, 16, 80, 34, 25, 75, 3, 3, 70, 64, 14, 30, 16, 39, 69, 8, 68, 72, 2, 26, 71, 28, 55, 65, 42, 12, 71, 33, 37, 75, 30, 42, 10, 66, 80, 26, 16, 8, 66, 19, 75, 41, 61, 22, 31, 35, 68, 34, 8, 41, 46, 84, 19, 71, 30, 6, 84, 46, 73, 67, 8, 78, 30, 64, 81, 82, 10, 38, 25, 61, 67, 46, 28, 51, 68, 27, 19, 70, 57, 3, 41, 67, 39, 23, 24, 32, 4, 30, 72, 36, 52, 58, 75, 2, 81, 15, 47, 6, 73, 22, 66, 31, 41, 48, 30, 33, 35, 75, 27, 47, 1, 59, 4, 51, 35, 18, 13, 38, 35, 21, 26, 5, 25, 12, 16, 28, 67, 49, 21, 83, 74, 44, 60, 34, 57, 1, 30, 44, 32, 9, 37, 63, 1, 62, 46, 62, 36, 46, 40, 32, 9, 71, 10, 48, 6, 34, 28, 17, 61, 31, 67, 76, 64, 11, 78, 2, 84, 17, 60, 40, 28, 9, 51, 50, 42, 16, 33, 84, 4, 51, 7, 43, 14, 5, 65, 2, 49, 68, 43, 28, 33, 37, 17, 5, 83, 68, 37, 41, 78, 74, 35, 81, 8, 32, 21, 55, 45, 10, 52, 7, 61, 53, 8, 47, 31, 28, 21, 33, 19, 25, 34, 21, 45, 52, 3, 47, 28, 72, 11, 70, 77, 31, 48, 7, 9, 54, 42, 13, 59, 63, 60, 15, 70, 58, 2, 73, 29, 62, 52, 77, 12, 73, 41, 32, 49, 6, 62, 6, 75, 68, 83, 76, 38, 24, 64, 23, 21, 77, 73, 36, 19, 56, 60, 73, 55, 34, 64, 60, 43, 26, 71, 3, 71, 20, 49, 25, 14, 8, 62, 59, 68, 16, 47, 45, 27, 55, 18, 49, 70, 65, 12, 43, 35, 35, 34, 16, 55, 33, 31, 59, 17, 45, 42, 34, 71, 11, 50, 66, 17, 19, 3, 23, 78, 48, 19, 81, 50, 49, 33, 45, 49, 15, 41, 10, 77, 57, 9, 14, 14, 53, 23, 26, 27, 61, 33, 25, 56, 58, 8, 64, 54, 9, 10, 18, 62, 28, 15, 71, 30, 30, 69, 33, 58, 56, 29, 5, 51, 13, 54, 33, 41, 80, 9, 10, 15, 30, 38, 1, 64, 53, 54, 70, 45, 80, 61, 12, 66, 22, 62, 18, 65, 9, 50, 73, 42, 49, 76, 34, 55, 12, 74, 35, 41, 42, 21, 60, 52, 43, 4, 14, 84, 20, 72, 68, 82, 20, 67, 22, 36, 55, 55, 33, 20, 72, 9, 21, 76, 7, 44, 73, 69, 70, 35, 66, 57, 18, 63, 27, 67, 30, 26, 82, 47, 64, 12, 70, 61, 57, 72, 78, 75, 41, 5, 48, 62, 5, 58, 68, 46, 15, 34, 59, 40, 69, 80, 66, 80, 55, 48, 35, 8, 25, 28, 9, 3, 64, 44, 80, 27, 70, 3, 83, 23, 33, 62, 48, 32, 71, 69, 62, 56, 39, 18, 49, 4, 64, 79, 54, 63, 75, 42, 25, 52, 2, 19, 6, 49, 57, 57, 6, 78, 12, 84, 31, 64, 69, 6, 50, 78, 18, 30, 48, 47, 31, 67, 30, 77, 54, 52, 65, 25, 33, 39, 41, 72, 25, 15, 72, 33, 13, 62, 72, 24, 66, 12, 76, 27, 80, 18, 63, 52, 11, 46, 32, 39, 42, 29, 72, 17, 61, 27, 17, 9, 76, 46, 23, 23, 34, 27, 54, 37, 60, 7, 41, 81, 32, 23, 35, 48, 71, 15, 34, 27, 25, 70, 53, 40, 52, 77, 30, 27, 16, 48, 68, 8, 68, 27, 4, 69, 43, 79, 72, 18, 44, 26, 50, 48, 8, 26, 9, 49, 30, 59, 46, 23, 18, 81, 25, 69, 20, 19, 53, 7, 67, 70, 12, 8, 48, 47, 45, 45, 20, 67, 2, 36, 68, 76, 61, 21, 71, 30, 3, 30, 76, 17, 81, 28, 69, 37, 47, 33, 16, 26, 22, 59, 54, 65, 24, 70, 24, 69, 80, 4, 4, 74, 12, 63, 6, 13, 51, 70, 7, 4, 31, 2, 63, 40, 8, 26, 6, 28, 40, 23, 63, 64, 49, 42, 50, 50, 22, 78, 70, 62, 42, 20, 46, 40, 67, 17, 1, 79, 46, 9, 7, 32, 37, 6, 49, 56, 63, 41, 55, 44, 69, 26, 11, 84, 31, 44, 81, 71, 73, 38, 44, 70, 81, 62, 78, 21, 75, 23, 74, 33, 18, 60, 35, 16, 75, 43, 10, 62, 46, 34, 9, 34, 23, 28, 76, 56, 43, 27, 29, 4, 79, 27, 35, 78, 28, 10, 14, 38, 39, 17, 45, 36, 77, 53, 23, 10, 5, 76, 65, 19, 68, 70, 83, 58, 52, 38, 24, 47, 19, 72, 27, 79, 56, 7, 76, 67, 3, 84, 77, 71, 34, 13, 10, 39, 62, 58, 7, 43, 58, 16, 5, 21, 45, 47, 68, 17, 1, 74, 44, 1, 20, 29, 58, 29, 46, 5, 80, 62, 30, 82, 2, 43, 9, 61, 40, 51, 3, 43, 40, 51, 8, 67, 15, 31, 1, 18, 79, 17, 35, 20, 18, 50, 61, 21, 40, 35, 50, 15, 51, 22, 20, 76, 25, 74, 72, 52, 31, 43, 1, 18, 15, 22, 82, 53, 84, 43, 8, 20, 32, 21, 19, 22, 46, 41, 4, 6, 62, 49, 38, 54, 50, 57, 79, 71, 49, 1, 83, 75, 22, 29, 34, 58, 67, 26, 62, 17, 16, 67, 50, 69, 66, 26, 8, 64, 47, 31, 16, 37, 42, 73, 3, 68, 4, 37, 33, 67, 34, 71, 1, 51, 78, 32, 81, 14, 42, 15, 4, 38, 79, 54, 15, 74, 28, 23, 70, 45, 70, 81, 80, 51, 78, 39, 71, 30, 54, 23, 35, 33, 16, 66, 36, 54, 9, 17, 34, 22, 8, 29, 40, 39, 79, 47, 20, 39, 26, 52, 60, 25, 62, 45, 10, 58, 33, 43, 69, 83, 2, 62, 15, 84, 69, 27, 32, 71, 20, 13, 36, 74, 81, 65, 73, 45, 59, 19, 68, 19, 10, 82, 56, 15, 55, 63, 13, 28, 39, 37, 6, 21, 20, 81, 19, 76, 10, 10, 24, 55, 43, 42, 56, 4, 5, 28, 34, 61, 35, 33, 3, 24, 18, 70, 38, 14, 70, 7, 66, 44, 33, 63, 62, 3, 11, 77, 39, 71, 77, 10, 24, 63, 54, 55, 13, 2, 82, 68, 27, 28, 50, 83, 61, 10, 45, 1, 29, 82, 48, 47, 48, 82, 47, 42, 52, 11, 74, 24, 72, 58, 65, 28, 17, 47, 58, 30, 44, 55, 58, 69, 79, 24, 73, 20, 24, 44, 53, 50, 37, 51, 11, 58, 57, 23, 54, 46, 9, 11, 78, 63, 82, 9, 51, 72, 10, 61, 44, 62, 22, 46, 13, 82, 37, 45, 79, 20, 31, 34, 59, 54, 67, 84, 84, 12, 79, 61, 40, 75, 63, 71, 24, 51, 32, 74, 38, 84, 48, 55, 20, 39, 19, 53, 46, 77, 49, 26, 65, 8, 77, 34, 13, 45, 37, 63, 66, 70, 6, 13, 37, 39, 34, 21, 40, 61, 45, 38, 59, 49, 78, 62, 18, 43, 28, 49, 29, 37, 51, 67, 41, 47, 54, 37, 82, 19, 16, 55, 81, 74, 66, 50, 27, 69, 48, 19, 40, 14, 21, 23, 26, 60, 71, 4, 84, 65, 57, 30, 81, 7, 17, 29, 56, 57, 73, 32, 44, 63, 3, 81, 64, 46, 66, 46, 29, 18, 73, 37, 63, 58, 45, 58, 80, 50, 34, 79, 18, 7, 32, 27, 2, 59, 40, 26, 82, 46, 17, 65, 73, 70, 79, 49, 21, 30, 38, 83, 16, 5, 28, 14, 35, 35, 6, 83, 61, 69, 32, 36, 33, 76, 52, 79, 38, 2, 13, 67, 14, 43, 59, 45, 29, 11, 65, 21, 61, 37, 81, 1, 33, 12, 33, 22, 9, 39, 4, 11, 57, 47, 15, 72, 31, 72, 56, 14, 21, 37, 30, 52, 50, 36, 44, 81, 20, 30, 13, 51, 78, 45, 33, 73, 64, 36, 72, 38, 43, 4, 5, 65, 84, 26, 63, 27, 44, 33, 28, 7, 13, 13, 16, 73, 16, 40, 6, 63, 39, 57, 44, 28, 65, 42, 36, 4, 52, 28, 45, 66, 41, 34, 46, 71, 28, 76, 39, 66, 44, 79, 62, 42, 22, 37, 5, 14, 38, 1, 23, 5, 52, 70, 23, 37, 61, 41, 70, 39, 7, 74, 43, 84, 18, 10, 43, 47, 60, 26, 47, 13, 15, 47, 66, 11, 83, 60, 51, 9, 23, 31, 48, 69, 64, 53, 21, 84, 51, 3, 13, 19, 27, 39, 43, 71, 53, 79, 21, 68, 30, 47, 67, 48, 22, 29, 82, 81, 81, 13, 77, 3, 66, 39, 73, 82, 54, 32, 10, 82, 76, 33, 71, 5, 25, 26, 1, 3, 61, 10, 66, 9, 76, 35, 64, 4, 8, 29, 31, 80, 74, 39, 1, 17, 49, 13, 26, 84, 37, 23, 37, 57, 78, 43, 46, 15, 16, 71, 9, 25, 31, 68, 25, 16, 3, 81, 30, 55, 40, 17, 2, 45, 14, 16, 69, 11, 5, 56, 43, 41, 3, 73, 35, 75, 19, 77, 69, 9, 34, 11, 28, 74, 31, 40, 22, 19, 25, 74, 3, 71, 13, 54, 40, 39, 2, 67, 24, 22, 44, 42, 28, 18, 14, 31, 9, 38, 61, 76, 3, 56, 51, 70, 71, 39, 22, 42, 1, 65, 42, 19, 6, 14, 77, 59, 2, 76, 33, 82, 20, 36, 22, 26, 55, 47, 71, 58, 50, 13, 47, 18, 47, 43, 37, 25, 50, 13, 2, 46, 13, 63, 14, 55, 83, 82, 81, 22, 2, 33, 52, 69, 16, 27, 26, 41, 32, 61, 6, 83, 21, 5, 56, 42, 11, 15, 38, 43, 75, 17, 24, 60, 68, 30, 30, 75, 40, 77, 7, 62, 53, 84, 84, 68, 4, 45, 53, 26, 36, 3, 26, 6, 23, 46, 12, 27, 62, 43, 68, 56, 43, 51, 42, 71, 60, 55, 61, 60, 63, 41, 21, 6, 16, 70, 77, 45, 55, 14, 49, 33, 55, 50, 30, 29, 83, 4, 55, 82, 54, 73, 13, 17, 21, 16, 76, 80, 20, 62, 67, 28, 6, 49, 82, 1, 53, 49, 13, 51, 48, 60, 84, 4, 60, 38, 47, 78, 32, 11, 49, 81, 71, 31, 78, 20, 54, 33, 77, 60, 82, 37, 59, 43, 5, 9, 58, 25, 46, 65, 70, 61, 72, 76, 10, 61, 47, 43, 70, 78, 65, 38, 82, 2, 43, 70, 59, 14, 8, 36, 47, 25, 40, 81, 1, 46, 54, 48, 58, 53, 1, 11, 71, 16, 64, 54, 60, 15, 20, 51, 70, 20, 28, 35, 43, 8, 68, 58, 10],
         "height":60,
         "name":"groundLayer",
         "opacity":1,
         "type":"tilelayer",
         "visible":true,
         "width":105,
         "x":0,
         "y":0
        }, 
        {
         "data":[0, 0, 0, 0, 0, 0, 0, 0, 0, 0, 0, 0, 0, 0, 0, 0, 0, 0, 0, 0, 0, 0, 0, 0, 0, 0, 0, 0, 0, 0, 0, 0, 0, 0, 0, 0, 0, 0, 0, 0, 0, 0, 0, 0, 0, 0, 0, 0, 0, 0, 0, 0, 0, 0, 0, 0, 0, 0, 0, 0, 0, 0, 0, 0, 0, 0, 0, 0, 0, 0, 0, 0, 0, 0, 0, 0, 0, 0, 0, 0, 0, 0, 0, 0, 0, 0, 0, 0, 0, 0, 0, 0, 0, 0, 0, 0, 0, 0, 0, 0, 0, 0, 0, 0, 0, 0, 0, 0, 0, 0, 0, 0, 0, 0, 0, 0, 0, 0, 0, 0, 0, 0, 0, 0, 0, 0, 0, 0, 0, 0, 0, 0, 0, 0, 0, 0, 0, 0, 0, 0, 0, 0, 0, 0, 0, 0, 0, 0, 0, 0, 0, 0, 0, 0, 0, 0, 0, 0, 0, 0, 0, 0, 0, 0, 0, 0, 0, 0, 0, 0, 0, 0, 0, 0, 0, 0, 0, 0, 0, 0, 0, 0, 0, 0, 0, 0, 0, 0, 0, 0, 0, 0, 0, 0, 0, 0, 0, 0, 0, 0, 0, 0, 0, 0, 0, 0, 0, 0, 0, 0, 0, 0, 0, 0, 0, 0, 0, 0, 0, 0, 0, 0, 0, 0, 0, 0, 0, 0, 0, 0, 0, 0, 0, 0, 0, 0, 0, 0, 0, 0, 0, 0, 0, 0, 0, 0, 0, 0, 0, 0, 0, 0, 0, 0, 0, 0, 0, 0, 0, 0, 0, 0, 0, 0, 0, 0, 0, 0, 0, 0, 0, 0, 0, 0, 0, 0, 0, 0, 0, 0, 0, 0, 0, 0, 0, 0, 0, 0, 0, 0, 0, 0, 0, 0, 0, 0, 0, 0, 0, 0, 0, 0, 0, 0, 0, 0, 0, 0, 0, 0, 0, 0, 0, 0, 0, 0, 0, 0, 0, 0, 0, 0, 0, 0, 0, 0, 0, 0, 0, 0, 0, 0, 0, 0, 0, 0, 0, 0, 0, 0, 0, 0, 0, 0, 0, 0, 0, 0, 0, 0, 0, 0, 0, 0, 0, 0, 0, 0, 0, 0, 0, 0, 0, 0, 0, 0, 0, 0, 0, 0, 0, 0, 0, 0, 0, 0, 0, 0, 0, 0, 0, 0, 0, 0, 0, 0, 0, 0, 0, 0, 0, 0, 0, 0, 0, 0, 0, 0, 0, 0, 0, 0, 0, 0, 0, 0, 0, 0, 0, 0, 0, 0, 0, 0, 0, 0, 0, 0, 0, 0, 0, 0, 0, 0, 0, 0, 0, 0, 0, 0, 0, 0, 0, 0, 0, 0, 0, 0, 0, 0, 0, 0, 0, 0, 0, 0, 0, 0, 0, 0, 0, 0, 0, 0, 0, 0, 0, 0, 0, 0, 0, 0, 0, 0, 0, 0, 0, 0, 0, 0, 0, 0, 0, 0, 0, 0, 0, 0, 0, 0, 0, 0, 0, 0, 0, 0, 0, 0, 0, 0, 0, 0, 0, 0, 0, 0, 0, 0, 0, 0, 0, 0, 0, 0, 0, 0, 0, 0, 0, 0, 0, 0, 0, 0, 0, 0, 0, 0, 0, 0, 0, 0, 0, 0, 0, 0, 0, 0, 0, 0, 0, 0, 0, 0, 0, 0, 0, 0, 0, 0, 0, 0, 0, 0, 0, 0, 0, 0, 0, 0, 0, 0, 0, 0, 0, 0, 0, 0, 0, 0, 0, 0, 0, 0, 0, 0, 0, 0, 0, 0, 0, 0, 0, 0, 0, 0, 0, 0, 0, 0, 0, 0, 0, 0, 0, 0, 0, 0, 0, 0, 0, 0, 0, 0, 0, 0, 0, 0, 0, 0, 0, 0, 0, 0, 0, 0, 0, 0, 0, 0, 0, 0, 0, 0, 0, 0, 0, 0, 0, 0, 0, 0, 0, 0, 0, 0, 0, 0, 0, 0, 0, 0, 0, 0, 0, 0, 0, 0, 0, 0, 0, 0, 0, 0, 0, 0, 0, 0, 0, 0, 0, 0, 0, 0, 0, 0, 0, 0, 0, 0, 0, 0, 0, 0, 0, 0, 0, 0, 0, 0, 0, 0, 0, 0, 0, 0, 0, 0, 0, 0, 0, 0, 0, 0, 0, 0, 0, 0, 0, 0, 0, 0, 0, 0, 0, 0, 0, 0, 0, 0, 0, 0, 0, 0, 0, 0, 0, 0, 0, 0, 0, 0, 0, 0, 0, 0, 0, 0, 0, 0, 0, 0, 0, 0, 0, 0, 0, 0, 0, 0, 0, 0, 0, 0, 0, 0, 0, 0, 0, 0, 0, 0, 0, 0, 0, 0, 0, 0, 0, 0, 0, 0, 0, 0, 0, 0, 0, 0, 0, 0, 0, 0, 0, 0, 0, 0, 0, 0, 0, 0, 0, 0, 0, 0, 0, 0, 0, 0, 0, 0, 0, 0, 0, 0, 0, 0, 0, 0, 0, 0, 0, 0, 0, 0, 0, 0, 0, 0, 0, 0, 0, 0, 0, 0, 0, 0, 0, 0, 0, 0, 0, 0, 0, 0, 0, 0, 0, 0, 0, 0, 0, 0, 0, 0, 0, 0, 0, 0, 0, 0, 0, 0, 0, 0, 0, 0, 0, 0, 0, 0, 0, 0, 0, 0, 0, 0, 0, 0, 0, 0, 0, 0, 0, 0, 0, 0, 0, 0, 0, 0, 0, 0, 0, 0, 0, 0, 0, 0, 0, 0, 0, 0, 0, 0, 0, 0, 0, 0, 0, 0, 0, 0, 0, 0, 0, 0, 0, 0, 0, 0, 0, 0, 0, 0, 0, 0, 0, 0, 0, 0, 0, 0, 0, 0, 0, 0, 0, 0, 0, 0, 0, 0, 0, 0, 0, 0, 0, 0, 0, 0, 0, 0, 0, 0, 0, 0, 0, 0, 0, 0, 0, 0, 0, 0, 0, 0, 0, 0, 0, 0, 0, 0, 0, 0, 0, 0, 0, 0, 0, 0, 0, 0, 0, 0, 0, 0, 0, 0, 0, 0, 0, 0, 0, 0, 0, 0, 0, 0, 0, 0, 0, 0, 0, 0, 0, 0, 0, 0, 0, 0, 0, 0, 0, 0, 0, 0, 0, 0, 0, 0, 0, 0, 0, 0, 0, 0, 0, 0, 0, 0, 0, 0, 0, 0, 0, 0, 0, 0, 0, 0, 0, 0, 0, 0, 0, 0, 0, 0, 0, 0, 0, 0, 0, 0, 0, 0, 0, 0, 0, 0, 0, 0, 0, 0, 0, 0, 0, 0, 0, 0, 0, 0, 0, 0, 0, 0, 0, 0, 0, 0, 0, 0, 0, 0, 0, 0, 0, 0, 0, 0, 0, 0, 0, 0, 0, 0, 0, 0, 0, 0, 0, 0, 0, 0, 0, 0, 0, 0, 0, 0, 0, 0, 0, 0, 0, 0, 0, 0, 0, 0, 0, 0, 0, 0, 0, 0, 0, 0, 0, 0, 0, 0, 0, 0, 0, 0, 0, 0, 0, 0, 0, 0, 0, 0, 0, 0, 0, 0, 0, 0, 0, 0, 0, 0, 0, 0, 0, 0, 0, 0, 0, 0, 0, 0, 0, 0, 0, 0, 0, 0, 0, 0, 0, 0, 0, 0, 0, 0, 0, 0, 0, 0, 0, 0, 0, 0, 0, 0, 0, 0, 0, 0, 0, 0, 0, 0, 0, 0, 0, 0, 0, 0, 0, 0, 0, 0, 0, 0, 0, 0, 0, 0, 0, 0, 0, 0, 0, 0, 0, 0, 0, 0, 0, 0, 0, 0, 0, 0, 0, 0, 0, 0, 0, 0, 0, 0, 0, 0, 0, 0, 0, 0, 0, 0, 0, 0, 0, 0, 0, 0, 0, 0, 0, 0, 0, 0, 0, 0, 0, 0, 0, 0, 0, 0, 0, 0, 0, 0, 0, 0, 0, 0, 0, 0, 0, 0, 0, 0, 0, 0, 0, 0, 0, 0, 0, 0, 0, 0, 0, 0, 0, 0, 0, 0, 0, 0, 0, 0, 0, 0, 0, 0, 0, 0, 0, 0, 0, 0, 0, 0, 0, 0, 0, 0, 0, 0, 0, 0, 0, 0, 0, 0, 0, 0, 0, 0, 0, 0, 0, 0, 0, 0, 0, 0, 0, 0, 0, 0, 0, 0, 0, 0, 0, 0, 0, 0, 0, 0, 0, 0, 0, 0, 0, 0, 0, 0, 0, 0, 0, 0, 0, 0, 0, 0, 0, 0, 0, 0, 0, 0, 0, 0, 0, 0, 0, 0, 0, 0, 0, 0, 0, 0, 0, 0, 0, 0, 0, 0, 0, 0, 0, 0, 0, 0, 0, 0, 0, 0, 0, 0, 0, 0, 0, 0, 0, 0, 0, 0, 0, 0, 0, 0, 0, 0, 0, 0, 0, 0, 0, 0, 0, 0, 0, 0, 0, 0, 0, 0, 0, 0, 0, 0, 0, 0, 0, 0, 0, 0, 0, 0, 0, 0, 0, 0, 0, 0, 0, 0, 0, 0, 0, 0, 0, 0, 0, 0, 0, 0, 0, 0, 0, 0, 0, 0, 0, 0, 0, 0, 0, 0, 0, 0, 0, 0, 0, 0, 0, 0, 0, 0, 0, 0, 0, 0, 0, 0, 0, 0, 0, 0, 0, 0, 0, 0, 0, 0, 0, 0, 0, 0, 0, 0, 0, 0, 0, 0, 0, 0, 0, 0, 0, 0, 0, 0, 0, 0, 0, 0, 0, 0, 0, 0, 0, 0, 0, 0, 0, 0, 0, 0, 0, 0, 0, 0, 0, 0, 0, 0, 0, 0, 0, 0, 0, 0, 0, 0, 0, 0, 0, 0, 0, 0, 0, 0, 0, 0, 0, 0, 0, 0, 0, 0, 0, 0, 0, 0, 0, 0, 0, 0, 0, 0, 0, 0, 0, 0, 0, 0, 0, 0, 0, 0, 0, 0, 0, 0, 0, 0, 0, 0, 0, 0, 0, 0, 0, 0, 0, 0, 0, 0, 0, 0, 0, 0, 0, 0, 0, 0, 0, 0, 0, 0, 0, 0, 0, 0, 0, 0, 0, 0, 0, 0, 0, 0, 0, 0, 0, 0, 0, 0, 0, 0, 0, 0, 0, 0, 0, 0, 0, 0, 0, 0, 0, 0, 0, 0, 0, 0, 0, 0, 0, 0, 0, 0, 0, 0, 0, 0, 0, 0, 0, 0, 0, 0, 0, 0, 0, 0, 0, 0, 0, 0, 0, 0, 0, 0, 0, 0, 0, 0, 0, 0, 0, 0, 0, 0, 0, 0, 0, 0, 0, 0, 0, 0, 0, 0, 0, 0, 0, 0, 0, 0, 0, 0, 0, 0, 0, 0, 0, 0, 0, 0, 0, 0, 0, 0, 0, 0, 0, 0, 0, 0, 0, 0, 0, 0, 0, 0, 0, 0, 0, 0, 0, 0, 0, 0, 0, 0, 0, 0, 0, 0, 0, 0, 0, 0, 0, 0, 0, 0, 0, 0, 0, 0, 0, 0, 0, 0, 0, 0, 0, 0, 0, 0, 0, 0, 0, 0, 0, 0, 0, 0, 0, 0, 0, 0, 0, 0, 0, 0, 0, 0, 0, 0, 0, 0, 0, 0, 0, 0, 0, 0, 0, 0, 0, 0, 0, 0, 0, 0, 0, 0, 0, 0, 0, 0, 0, 0, 0, 0, 0, 0, 0, 0, 0, 0, 0, 0, 0, 0, 0, 0, 0, 0, 0, 0, 0, 0, 0, 0, 0, 0, 0, 0, 0, 0, 0, 0, 0, 0, 0, 0, 0, 0, 0, 0, 0, 0, 0, 0, 0, 0, 0, 0, 0, 0, 0, 0, 0, 0, 0, 0, 0, 0, 0, 0, 0, 0, 0, 0, 0, 0, 0, 0, 0, 0, 0, 0, 0, 0, 0, 0, 0, 0, 0, 0, 0, 0, 0, 0, 0, 0, 0, 0, 0, 0, 0, 0, 0, 0, 0, 0, 0, 0, 0, 0, 0, 0, 0, 0, 0, 0, 0, 0, 0, 0, 0, 0, 0, 0, 0, 0, 0, 0, 0, 0, 0, 0, 0, 0, 0, 0, 0, 0, 0, 0, 0, 0, 0, 0, 0, 0, 0, 0, 0, 0, 0, 0, 0, 0, 0, 0, 0, 0, 0, 0, 0, 0, 0, 0, 0, 0, 0, 0, 0, 0, 0, 0, 0, 0, 0, 0, 0, 0, 0, 0, 0, 0, 0, 0, 0, 0, 0, 0, 0, 0, 0, 0, 0, 0, 0, 0, 0, 0, 0, 0, 0, 0, 0, 0, 0, 0, 0, 0, 0, 0, 0, 0, 0, 0, 0, 0, 0, 0, 0, 0, 0, 0, 0, 0, 0, 0, 0, 0, 0, 0, 0, 0, 0, 0, 0, 0, 0, 0, 0, 0, 0, 0, 0, 0, 0, 0, 0, 0, 0, 0, 0, 0, 0, 0, 0, 0, 0, 0, 0, 0, 0, 0, 0, 0, 0, 0, 0, 0, 0, 0, 0, 0, 0, 0, 0, 0, 0, 0, 0, 0, 0, 0, 0, 0, 0, 0, 0, 0, 0, 0, 0, 0, 0, 0, 0, 0, 0, 0, 0, 0, 0, 0, 0, 0, 0, 0, 0, 0, 0, 0, 0, 0, 0, 0, 0, 0, 0, 0, 0, 0, 0, 0, 0, 0, 0, 0, 0, 0, 0, 0, 0, 0, 0, 0, 0, 0, 0, 0, 0, 0, 0, 0, 0, 0, 0, 0, 0, 0, 0, 0, 0, 0, 0, 0, 0, 0, 0, 0, 0, 0, 0, 0, 0, 0, 0, 0, 0, 0, 0, 0, 0, 0, 0, 0, 0, 0, 0, 0, 0, 0, 0, 0, 0, 0, 0, 0, 0, 0, 0, 0, 0, 0, 0, 0, 0, 0, 0, 0, 0, 0, 0, 0, 0, 0, 0, 0, 0, 0, 0, 0, 0, 0, 0, 0, 0, 0, 0, 0, 0, 0, 0, 0, 0, 0, 0, 0, 0, 0, 0, 0, 0, 0, 0, 0, 0, 0, 0, 0, 0, 0, 0, 0, 0, 0, 0, 0, 0, 0, 0, 0, 0, 0, 0, 0, 0, 0, 0, 0, 0, 0, 0, 0, 0, 0, 0, 0, 0, 0, 0, 0, 0, 0, 0, 0, 0, 0, 0, 0, 0, 0, 0, 0, 0, 0, 0, 0, 0, 0, 0, 0, 0, 0, 0, 0, 0, 0, 0, 0, 0, 0, 0, 0, 0, 0, 0, 0, 0, 0, 0, 0, 0, 0, 0, 0, 0, 0, 0, 0, 0, 0, 0, 0, 0, 0, 0, 0, 0, 0, 0, 0, 0, 0, 0, 0, 0, 0, 0, 0, 0, 0, 0, 0, 0, 0, 0, 0, 0, 0, 0, 0, 0, 0, 0, 0, 0, 0, 0, 0, 0, 0, 0, 0, 0, 0, 0, 0, 0, 0, 0, 0, 0, 0, 0, 0, 0, 0, 0, 0, 0, 0, 0, 0, 0, 0, 0, 0, 0, 0, 0, 0, 0, 0, 0, 0, 0, 0, 0, 0, 0, 0, 0, 0, 0, 0, 0, 0, 0, 0, 0, 0, 0, 0, 0, 0, 0, 0, 0, 0, 0, 0, 0, 0, 0, 0, 0, 0, 0, 0, 0, 0, 0, 0, 0, 0, 0, 0, 0, 0, 0, 0, 0, 0, 0, 0, 0, 0, 0, 0, 0, 0, 0, 0, 0, 0, 0, 0, 0, 0, 0, 0, 0, 0, 0, 0, 0, 0, 0, 0, 0, 0, 0, 0, 0, 0, 0, 0, 0, 0, 0, 0, 0, 0, 0, 0, 0, 0, 0, 0, 0, 0, 0, 0, 0, 0, 0, 0, 0, 0, 0, 0, 0, 0, 0, 0, 0, 0, 0, 0, 0, 0, 0, 0, 0, 0, 0, 0, 0, 0, 0, 0, 0, 0, 0, 0, 0, 0, 0, 0, 0, 0, 0, 0, 0, 0, 0, 0, 0, 0, 0, 0, 0, 0, 0, 0, 0, 0, 0, 0, 0, 0, 0, 0, 0, 0, 0, 0, 0, 0, 0, 0, 0, 0, 0, 0, 0, 0, 0, 0, 0, 0, 0, 0, 0, 0, 0, 0, 0, 0, 0, 0, 0, 0, 0, 0, 0, 0, 0, 0, 0, 0, 0, 0, 0, 0, 0, 0, 0, 0, 0, 0, 0, 0, 0, 0, 0, 0, 0, 0, 0, 0, 0, 0, 0, 0, 0, 0, 0, 0, 0, 0, 0, 0, 0, 0, 0, 0, 0, 0, 0, 0, 0, 0, 0, 0, 0, 0, 0, 0, 0, 0, 0, 0, 0, 0, 0, 0, 0, 0, 0, 0, 0, 0, 0, 0, 0, 0, 0, 0, 0, 0, 0, 0, 0, 0, 0, 0, 0, 0, 0, 0, 0, 0, 0, 0, 0, 0, 0, 0, 0, 0, 0, 0, 0, 0, 0, 0, 0, 0, 0, 0, 0, 0, 0, 0, 0, 0, 0, 0, 0, 0, 0, 0, 0, 0, 0, 0, 0, 0, 0, 0, 0, 0, 0, 0, 0, 0, 0, 0, 0, 0, 0, 0, 0, 0, 0, 0, 0, 0, 0, 0, 0, 0, 0, 0, 0, 0, 0, 0, 0, 0, 0, 0, 0, 0, 0, 0, 0, 0, 0, 0, 0, 0, 0, 0, 0, 0, 0, 0, 0, 0, 0, 0, 0, 0, 0, 0, 0, 0, 0, 0, 0, 0, 0, 0, 0, 0, 0, 0, 0, 0, 0, 0, 0, 0, 0, 0, 0, 0, 0, 0, 0, 0, 0, 0, 0, 0, 0, 0, 0, 0, 0, 0, 0, 0, 0, 0, 0, 0, 0, 0, 0, 0, 0, 0, 0, 0, 0, 0, 0, 0, 0, 0, 0, 0, 0, 0, 0, 0, 0, 0, 0, 0, 0, 0, 0, 0, 0, 0, 0, 0, 0, 0, 0, 0, 0, 0, 0, 0, 0, 0, 0, 0, 0, 0, 0, 0, 0, 0, 0, 0, 0, 0, 0, 0, 0, 0, 0, 0, 0, 0, 0, 0, 0, 0, 0, 0, 0, 0, 0, 0, 0, 0, 0, 0, 0, 0, 0, 0, 0, 0, 0, 0, 0, 0, 0, 0, 0, 0, 0, 0, 0, 0, 0, 0, 0, 0, 0, 0, 0, 0, 0, 0, 0, 0, 0, 0, 0, 0, 0, 0, 0, 0, 0, 0, 0, 0, 0, 0, 0, 0, 0, 0, 0, 0, 0, 0, 0, 0, 0, 0, 0, 0, 0, 0, 0, 0, 0, 0, 0, 0, 0, 0, 0, 0, 0, 0, 0, 0, 0, 0, 0, 0, 0, 0, 0, 0, 0, 0, 0, 0, 0, 0, 0, 0, 0, 0, 0, 0, 0, 0, 0, 0, 0, 0, 0, 0, 0, 0, 0, 0, 0, 0, 0, 0, 0, 0, 0, 0, 0, 0, 0, 0, 0, 0, 0, 0, 0, 0, 0, 0, 0, 0, 0, 0, 0, 0, 0, 0, 0, 0, 0, 0, 0, 0, 0, 0, 0, 0, 0, 0, 0, 0, 0, 0, 0, 0, 0, 0, 0, 0, 0, 0, 0, 0, 0, 0, 0, 0, 0, 0, 0, 0, 0, 0, 0, 0, 0, 0, 0, 0, 0, 0, 0, 0, 0, 0, 0, 0, 0, 0, 0, 0, 0, 0, 0, 0, 0, 0, 0, 0, 0, 0, 0, 0, 0, 0, 0, 0, 0, 0, 0, 0, 0, 0, 0, 0, 0, 0, 0, 0, 0, 0, 0, 0, 0, 0, 0, 0, 0, 0, 0, 0, 0, 0, 0, 0, 0, 0, 0, 0, 0, 0, 0, 0, 0, 0, 0, 0, 0, 0, 0, 0, 0, 0, 0, 0, 0, 0, 0, 0, 0, 0, 0, 0, 0, 0, 0, 0, 0, 0, 0, 0, 0, 0, 0, 0, 0, 0, 0, 0, 0, 0, 0, 0, 0, 0, 0, 0, 0, 0, 0, 0, 0, 0, 0, 0, 0, 0, 0, 0, 0, 0, 0, 0, 0, 0, 0, 0, 0, 0, 0, 0, 0, 0, 0, 0, 0, 0, 0, 0, 0, 0, 0, 0, 0, 0, 0, 0, 0, 0, 0, 0, 0, 0, 0, 0, 0, 0, 0, 0, 0, 0, 0, 0, 0, 0, 0, 0, 0, 0, 0, 0, 0, 0, 0, 0, 0, 0, 0, 0, 0, 0, 0, 0, 0, 0, 0, 0, 0, 0, 0, 0, 0, 0, 0, 0, 0, 0, 0, 0, 0, 0, 0, 0, 0, 0, 0, 0, 0, 0, 0, 0, 0, 0, 0, 0, 0, 0, 0, 0, 0, 0, 0, 0, 0, 0, 0, 0, 0, 0, 0, 0, 0, 0, 0, 0, 0, 0, 0, 0, 0, 0, 0, 0, 0, 0, 0, 0, 0, 0, 0, 0, 0, 0, 0, 0, 0, 0, 0, 0, 0, 0, 0, 0, 0, 0, 0, 0, 0, 0, 0, 0, 0, 0, 0, 0, 0, 0, 0, 0, 0, 0, 0, 0, 0, 0, 0, 0, 0, 0, 0, 0, 0, 0, 0, 0, 0, 0, 0, 0, 0, 0, 0, 0, 0, 0, 0, 0, 0, 0, 0, 0, 0, 0, 0, 0, 0, 0, 0, 0, 0, 0, 0, 0, 0, 0, 0, 0, 0, 0, 0, 0, 0, 0, 0, 0, 0, 0, 0, 0, 0, 0, 0, 0, 0, 0, 0, 0, 0, 0, 0, 0, 0, 0, 0, 0, 0, 0, 0, 0, 0, 0, 0, 0, 0, 0, 0, 0, 0, 0, 0, 0, 0, 0, 0, 0, 0, 0, 0, 0, 0, 0, 0, 0, 0, 0, 0, 0, 0, 0, 0, 0, 0, 0, 0, 0, 0, 0, 0, 0, 0, 0, 0, 0, 0, 0, 0, 0, 0, 0, 0, 0, 0, 0, 0, 0, 0, 0, 0, 0, 0, 0, 0, 0, 0, 0, 0, 0, 0, 0, 0, 0, 0, 0, 0, 0, 0, 0, 0, 0, 0, 0, 0, 0, 0, 0, 0, 0, 0, 0, 0, 0, 0, 0, 0, 0, 0, 0, 0, 0, 0, 0, 0, 0, 0, 0, 0, 0, 0, 0, 0, 0, 0, 0, 0, 0, 0, 0, 0, 0, 0, 0, 0, 0, 0, 0, 0, 0, 0, 0, 0, 0, 0, 0, 0, 0, 0, 0, 0, 0, 0, 0, 0, 0, 0, 0, 0, 0, 0, 0, 0, 0, 0, 0, 0, 0, 0, 0, 0, 0, 0, 0, 0, 0, 0, 0, 0, 0, 0, 0, 0, 0, 0, 0, 0, 0, 0, 0, 0, 0, 0, 0, 0, 0, 0, 0, 0, 0, 0, 0, 0, 0, 0, 0, 0, 0, 0, 0, 0, 0, 0, 0, 0, 0, 0, 0, 0, 0, 0, 0, 0, 0, 0, 0, 0, 0, 0, 0, 0, 0, 0, 0, 0, 0, 0, 0, 0, 0, 0, 0, 0, 0, 0, 0, 0, 0, 0, 0, 0, 0, 0, 0, 0, 0, 0, 0, 0, 0, 0, 0, 0, 0, 0, 0, 0, 0, 0, 0, 0, 0, 0, 0, 0, 0, 0, 0, 0, 0, 0, 0, 0, 0, 0, 0, 0, 0, 0, 0, 0, 0, 0, 0, 0, 0, 0, 0, 0, 0, 0, 0, 0, 0, 0, 0, 0, 0, 0, 0, 0, 0, 0, 0, 0, 0, 0, 0, 0, 0, 0, 0, 0, 0, 0, 0, 0, 0, 0, 0, 0, 0, 0, 0, 0, 0, 0, 0, 0, 0, 0, 0, 0, 0, 0, 0, 0, 0, 0, 0, 0, 0, 0, 0, 0, 0, 0, 0, 0, 0, 0, 0, 0, 0, 0, 0, 0, 0, 0, 0, 0, 0, 0, 0, 0, 0, 0, 0, 0, 0, 0, 0, 0, 0, 0, 0, 0, 0, 0, 0, 0, 0, 0, 0, 0, 0, 0, 0, 0, 0, 0, 0, 0, 0, 0, 0, 0, 0, 0, 0, 0, 0, 0, 0, 0, 0, 0, 0, 0, 0, 0, 0, 0, 0, 0, 0, 0, 0, 0, 0, 0, 0, 0, 0, 0, 0, 0, 0, 0, 0, 0, 0, 0, 0, 0, 0, 0, 0, 0, 0, 0, 0, 0, 0, 0, 0, 0, 0, 0, 0, 0, 0, 0, 0, 0, 0, 0, 0, 0, 0, 0, 0, 0, 0, 0, 0, 0, 0, 0, 0, 0, 0, 0, 0, 0, 0, 0, 0, 0, 0, 0, 0, 0, 0, 0, 0, 0, 0, 0, 0, 0, 0, 0, 0, 0, 0, 0, 0, 0, 0, 0, 0, 0, 0, 0, 0, 0, 0, 0, 0, 0, 0, 0, 0, 0, 0, 0, 0, 0, 0, 0, 0, 0, 0, 0, 0, 0, 0, 0, 0, 0, 0, 0, 0, 0, 0, 0, 0, 0, 0, 0, 0, 0, 0, 0, 0, 0, 0, 0, 0, 0, 0, 0, 0, 0, 0, 0, 0, 0, 0, 0, 0, 0, 0, 0, 0, 0, 0, 0, 0, 0, 0, 0, 0, 0, 0, 0, 0, 0, 0, 0, 0, 0, 0, 0, 0, 0, 0, 0, 0, 0, 0, 0, 0, 0, 0, 0, 0, 0, 0, 0, 0, 0, 0, 0, 0, 0, 0, 0, 0, 0, 0, 0, 0, 0, 0, 0, 0, 0, 0, 0, 0, 0, 0, 0, 0, 0, 0, 0, 0, 0, 0, 0, 0, 0, 0, 0, 0, 0, 0, 0, 0, 0, 0, 0, 0, 0, 0, 0, 0, 0, 0, 0, 0, 0, 0, 0, 0, 0, 0, 0, 0, 0, 0, 0, 0, 0, 0, 0, 0, 0, 0, 0, 0, 0, 0, 0, 0, 0, 0, 0, 0, 0, 0, 0, 0, 0, 0, 0, 0, 0, 0, 0, 0, 0, 0, 0, 0, 0, 0, 0, 0, 0, 0, 0, 0, 0, 0, 0, 0, 0, 0, 0, 0, 0, 0, 0, 0, 0, 0, 0, 0, 0, 0, 0, 0, 0, 0, 0, 0, 0, 0, 0, 0, 0, 0, 0, 0, 0, 0, 0, 0, 0, 0, 0, 0, 0, 0, 0, 0, 0, 0, 0, 0, 0, 0, 0, 0, 0, 0, 0, 0, 0, 0, 0, 0, 0, 0, 0, 0, 0, 0, 0, 0, 0, 0, 0, 0, 0, 0, 0, 0, 0, 0, 0, 0, 0, 0, 0, 0, 0, 0, 0, 0, 0, 0, 0, 0, 0, 0, 0, 0, 0, 0, 0, 0, 0, 0, 0, 0, 0, 0, 0, 0, 0, 0, 0, 0, 0, 0, 0, 0, 0, 0, 0, 0, 0, 0, 0, 0, 0, 0, 0, 0, 0, 0, 0, 0, 0, 0, 0, 0, 0, 0, 0, 0, 0, 0, 0, 0, 0, 0, 0, 0, 0, 0, 0, 0, 0, 0, 0, 0, 0, 0, 0, 0, 0, 0, 0, 0, 0, 0, 0, 0, 0, 0, 0, 0, 0, 0, 0, 0, 0, 0, 0, 0, 0, 0, 0, 0, 0, 0, 0, 0, 0, 0, 0, 0, 0, 0, 0, 0, 0, 0, 0, 0, 0, 0, 0, 0, 0, 0, 0, 0, 0, 0, 0, 0, 0, 0, 0, 0, 0, 0, 0, 0, 0, 0, 0, 0, 0, 0, 0, 0, 0, 0, 0, 0, 0, 0, 0, 0, 0, 0, 0, 0, 0, 0, 0, 0, 0, 0, 0, 0, 0, 0, 0, 0, 0, 0, 0, 0, 0, 0, 0, 0, 0, 0, 0, 0, 0, 0, 0, 0, 0, 0, 0, 0, 0, 0, 0, 0, 0, 0, 0, 0, 0, 0, 0, 0, 0, 0, 0, 0, 0, 0, 0, 0, 0, 0, 0, 0, 0, 0, 0, 0, 0, 0, 0, 0, 0, 0, 0, 0, 0, 0, 0, 0, 0, 0, 0, 0, 0, 0, 0, 0, 0, 0, 0, 0, 0, 0, 0, 0, 0, 0, 0, 0, 0, 0, 0, 0, 0, 0, 0, 0, 0, 0, 0, 0, 0, 0, 0, 0, 0, 0, 0, 0, 0, 0, 0, 0, 0, 0, 0, 0, 0, 0, 0, 0, 0, 0, 0, 0, 0, 0, 0, 0, 0, 0, 0, 0, 0, 0, 0, 0, 0, 0, 0, 0, 0, 0, 0, 0, 0, 0, 0, 0, 0, 0, 0, 0, 0, 0, 0, 0, 0, 0, 0, 0, 0, 0, 0, 0, 0, 0, 0, 0, 0, 0, 0, 0, 0, 0, 0, 0, 0, 0, 0, 0, 0, 0, 0, 0, 0, 0, 0, 0, 0, 0, 0, 0, 0, 0, 0, 0, 0, 0, 0, 0, 0, 0, 0, 0, 0, 0, 0, 0, 0, 0, 0, 0, 0, 0, 0, 0, 0, 0, 0, 0, 0, 0, 0, 0, 0, 0, 0, 0, 0, 0, 0, 0, 0, 0, 0, 0, 0, 0, 0, 0, 0, 0, 0, 0, 0, 0, 0, 0, 0, 0, 0, 0, 0, 0, 0, 0, 0, 0, 0, 0, 0, 0, 0, 0, 0, 0, 0, 0, 0, 0, 0, 0, 0, 0, 0, 0, 0, 0, 0, 0, 0, 0, 0, 0, 0, 0, 0, 0, 0, 0, 0, 0, 0, 0, 0, 0, 0, 0, 0, 0, 0, 0, 0, 0, 0, 0, 0, 0, 0, 0, 0, 0, 0, 0, 0, 0, 0, 0, 0, 0, 0, 0, 0, 0, 0, 0, 0, 0, 0, 0, 0, 0, 0, 0, 0, 0, 0, 0, 0, 0, 0, 0, 0, 0, 0, 0, 0, 0, 0, 0, 0, 0, 0, 0, 0, 0, 0, 0, 0, 0, 0, 0, 0, 0, 0, 0, 0, 0, 0, 0, 0, 0, 0, 0, 0, 0, 0, 0, 0, 0, 0, 0, 0, 0, 0, 0, 0, 0, 0, 0, 0, 0, 0, 0, 0, 0, 0, 0, 0, 0, 0, 0, 0, 0, 0, 0, 0, 0, 0, 0, 0, 0, 0, 0, 0, 0, 0, 0, 0, 0, 0, 0, 0, 0, 0, 0, 0, 0, 0, 0, 0, 0, 0, 0, 0, 0, 0, 0, 0, 0, 0, 0, 0, 0, 0, 0, 0, 0, 0, 0, 0, 0, 0, 0, 0, 0, 0, 0, 0, 0, 0, 0, 0, 0, 0, 0, 0, 0, 0, 0, 0, 0, 0, 0, 0, 0, 0, 0, 0, 0, 0, 0, 0, 0, 0, 0, 0, 0, 0, 0, 0, 0, 0, 0, 0, 0, 0, 0, 0, 0, 0, 0, 0, 0, 0, 0, 0, 0, 0, 0, 0, 0, 0, 0, 0, 0, 0, 0, 0, 0, 0, 0, 0, 0, 0, 0, 0, 0, 0, 0, 0, 0, 0, 0, 0, 0, 0, 0, 0, 0, 0, 0, 0, 0, 0, 0, 0, 0, 0, 0, 0, 0, 0, 0, 0, 0, 0, 0, 0, 0, 0, 0, 0, 0, 0, 0, 0, 0, 0, 0, 0, 0, 0, 0, 0, 0, 0, 0, 0, 0, 0, 0, 0, 0, 0, 0, 0, 0, 0, 0, 0, 0, 0, 0, 0, 0, 0, 0, 0, 0, 0, 0, 0, 0, 0, 0, 0, 0, 0, 0, 0, 0, 0, 0, 0, 0, 0, 0, 0, 0, 0, 0, 0, 0, 0, 0, 0, 0, 0, 0, 0, 0, 0, 0, 0, 0, 0, 0, 0, 0, 0, 0, 0, 0, 0, 0, 0, 0, 0, 0, 0, 0, 0, 0, 0, 0, 0, 0, 0, 0, 0, 0, 0, 0, 0, 0, 0, 0, 0, 0, 0, 0, 0, 0, 0, 0, 0, 0, 0, 0, 0, 0, 0, 0, 0, 0, 0, 0, 0, 0, 0, 0, 0, 0, 0, 0, 0, 0, 0, 0, 0, 0, 0, 0, 0, 0, 0, 0, 0, 0, 0, 0, 0, 0, 0, 0, 0, 0, 0, 0, 0, 0, 0, 0, 0, 0, 0, 0, 0, 0, 0, 0, 0, 0, 0, 0, 0, 0, 0, 0, 0, 0, 0, 0, 0, 0, 0, 0, 0, 0, 0, 0, 0, 0, 0, 0, 0, 0, 0, 0, 0, 0, 0, 0, 0, 0, 0, 0, 0, 0, 0, 0, 0, 0, 0, 0, 0, 0, 0, 0, 0, 0, 0, 0, 0, 0, 0, 0, 0, 0, 0, 0, 0, 0, 0, 0, 0, 0, 0, 0, 0, 0, 0, 0, 0, 0, 0, 0, 0, 0, 0, 0, 0, 0, 0, 0, 0, 0, 0, 0, 0, 0, 0, 0, 0, 0, 0, 0, 0, 0, 0, 0, 0, 0, 0, 0, 0, 0, 0, 0, 0, 0, 0, 0, 0, 0, 0, 0, 0, 0, 0, 0, 0, 0, 0, 0, 0, 0, 0, 0, 0, 0, 0, 0, 0, 0, 0, 0, 0, 0, 0, 0, 0, 0, 0, 0, 0, 0, 0, 0, 0, 0, 0, 0, 0, 0, 0, 0, 0, 0, 0, 0, 0, 0, 0, 0, 0, 0, 0, 0, 0, 0, 0, 0, 0, 0, 0, 0, 0, 0, 0, 0, 0, 0, 0, 0, 0, 0, 0, 0, 0, 0, 0, 0, 0, 0, 0, 0, 0, 0, 0, 0, 0, 0, 0, 0, 0, 0, 0, 0, 0, 0, 0, 0, 0, 0, 0, 0, 0, 0, 0, 0, 0, 0, 0, 0, 0, 0, 0, 0, 0, 0, 0, 0, 0, 0, 0, 0, 0, 0, 0, 0, 0, 0, 0, 0, 0, 0, 0, 0, 0, 0, 0, 0, 0, 0, 0, 0, 0, 0, 0, 0, 0, 0, 0, 0, 0, 0, 0, 0, 0, 0, 0, 0, 0, 0, 0, 0, 0, 0, 0, 0, 0, 0, 0, 0, 0, 0, 0, 0, 0, 0, 0, 0, 0, 0, 0, 0, 0, 0, 0, 0, 0, 0, 0, 0, 0, 0, 0, 0, 0, 0, 0, 0, 0, 0, 0, 0, 0, 0, 0, 0, 0, 0, 0, 0, 0, 0, 0, 0, 0, 0, 0, 0, 0, 0, 0, 0, 0, 0, 0, 0, 0, 0, 0, 0, 0, 0, 0, 0, 0, 0, 0, 0, 0, 0, 0, 0, 0, 0, 0, 0, 0, 0, 0, 0, 0, 0, 0, 0, 0, 0, 0, 0, 0, 0, 0, 0, 0, 0, 0, 0, 0, 0, 0, 0, 0, 0, 0, 0, 0, 0, 0, 0, 0, 0, 0, 0, 0, 0, 0, 0, 0, 0, 0, 0, 0, 0, 0, 0, 0, 0, 0, 0, 0, 0, 0, 0, 0, 0, 0, 0, 0, 0, 0, 0, 0, 0, 0, 0, 0, 0, 0, 0, 0, 0, 0, 0, 0, 0, 0, 0, 0, 0, 0, 0, 0, 0, 0, 0, 0, 0, 0, 0, 0, 0, 0, 0, 0, 0, 0, 0, 0, 0, 0, 0, 0, 0, 0, 0, 0, 0, 0, 0, 0, 0, 0, 0, 0, 0, 0, 0, 0, 0, 0, 0, 0, 0, 0, 0, 0, 0, 0, 0, 0, 0, 0, 0, 0, 0, 0, 0, 0, 0, 0, 0, 0, 0, 0, 0, 0, 0, 0, 0, 0, 0, 0, 0, 0, 0, 0, 0, 0, 0, 0, 0, 0, 0, 0, 0, 0, 0, 0, 0, 0, 0, 0, 0, 0, 0, 0, 0, 0, 0, 0, 0, 0, 0, 0, 0, 0, 0, 0, 0, 0, 0, 0, 0, 0, 0, 0, 0, 0, 0, 0, 0, 0, 0, 0, 0, 0, 0, 0, 0, 0, 0, 0, 0, 0, 0, 0, 0, 0, 0, 0, 0, 0, 0, 0, 0, 0, 0, 0, 0, 0, 0, 0, 0, 0, 0, 0, 0, 0, 0, 0, 0, 0, 0, 0, 0, 0, 0, 0, 0, 0, 0, 0, 0, 0, 0, 0, 0, 0, 0, 0, 0, 0, 0, 0, 0, 0, 0, 0, 0, 0, 0, 0, 0, 0, 0, 0, 0, 0, 0, 0, 0, 0, 0, 0, 0, 0, 0, 0, 0, 0, 0, 0, 0, 0, 0, 0, 0, 0, 0, 0, 0, 0, 0, 0, 0, 0, 0, 0, 0, 0, 0, 0, 0, 0, 0, 0, 0, 0, 0, 0, 0, 0, 0, 0, 0, 0, 0, 0, 0, 0, 0, 0, 0, 0, 0, 0, 0, 0, 0, 0, 0, 0, 0, 0, 0, 0, 0, 0, 0, 0, 0, 0, 0, 0, 0, 0, 0, 0, 0, 0, 0, 0, 0, 0, 0, 0, 0, 0, 0, 0, 0, 0, 0, 0, 0, 0, 0, 0, 0, 0, 0, 0, 0, 0, 0, 0, 0, 0, 0, 0, 0, 0, 0, 0, 0, 0, 0, 0, 0, 0, 0, 0, 0, 0, 0, 0, 0, 0, 0, 0, 0, 0, 0, 0, 0, 0, 0, 0, 0, 0, 0, 0, 0, 0, 0, 0, 0, 0, 0, 0, 0, 0, 0, 0, 0, 0, 0, 0, 0, 0, 0, 0, 0, 0, 0, 0, 0, 0, 0, 0, 0, 0, 0, 0, 0, 0, 0, 0, 0, 0, 0, 0, 0, 0, 0, 0, 0, 0, 0, 0, 0, 0, 0, 0, 0, 0, 0, 0, 0, 0, 0, 0, 0, 0, 0, 0, 0, 0, 0, 0, 0, 0, 0, 0, 0, 0, 0, 0, 0, 0, 0, 0, 0, 0, 0, 0, 0, 0, 0, 0, 0, 0, 0, 0, 0, 0, 0, 0, 0, 0, 0, 0, 0, 0, 0, 0, 0, 0, 0, 0, 0, 0, 0, 0, 0, 0, 0, 0, 0, 0, 0, 0, 0, 0, 0, 0, 0, 0, 0, 0, 0, 0, 0, 0, 0, 0, 0, 0, 0, 0, 0, 0, 0, 0, 0, 0, 0, 0, 0, 0, 0, 0, 0, 0, 0, 0, 0, 0, 0, 0, 0, 0, 0, 0, 0, 0, 0, 0, 0, 0, 0, 0, 0, 0, 0, 0, 0, 0, 0, 0, 0, 0, 0, 0, 0, 0, 0, 0, 0, 0, 0, 0, 0, 0, 0, 0, 0, 0, 0, 0, 0, 0, 0, 0, 0, 0, 0, 0, 0, 0, 0, 0, 0, 0, 0, 0, 0, 0, 0, 0, 0, 0, 0, 0, 0, 0, 0, 0, 0, 0, 0, 0, 0, 0, 0, 0, 0, 0, 0, 0, 0, 0, 0, 0, 0, 0, 0, 0, 0, 0, 0, 0, 0, 0, 0, 0, 0, 0, 0, 0, 0, 0, 0, 0, 0, 0, 0, 0, 0, 0, 0, 0, 0, 0, 0, 0, 0, 0, 0, 0, 0, 0, 0, 0, 0, 0, 0, 0, 0, 0, 0, 0, 0, 0, 0, 0, 0, 0, 0, 0, 0, 0, 0, 0, 0, 0, 0, 0, 0, 0, 0, 0, 0, 0, 0, 0, 0, 0, 0, 0, 0, 0, 0, 0, 0, 0, 0, 0, 0, 0, 0, 0, 0, 0, 0, 0, 0, 0, 0, 0, 0, 0, 0, 0, 0, 0, 0, 0, 0, 0, 0, 0, 0, 0, 0, 0, 0, 0, 0, 0, 0, 0, 0, 0, 0, 0, 0, 0, 0, 0, 0, 0, 0, 0, 0, 0, 0, 0, 0, 0, 0, 0, 0, 0, 0, 0, 0, 0, 0, 0, 0, 0, 0, 0, 0, 0, 0, 0, 0, 0, 0, 0, 0, 0, 0, 0, 0, 0, 0, 0, 0, 0, 0, 0, 0, 0, 0, 0, 0, 0, 0, 0, 0, 0, 0, 0, 0, 0, 0, 0, 0, 0, 0, 0, 0, 0, 0, 0, 0, 0, 0, 0, 0, 0, 0, 0, 0, 0, 0, 0, 0],
         "height":60,
         "name":"layer2",
         "opacity":1,
         "type":"tilelayer",
         "visible":true,
         "width":105,
         "x":0,
         "y":0
        }],
 "nextobjectid":1,
 "orientation":"orthogonal",
 "renderorder":"right-down",
 "tileheight":16,
 "tilesets":[
        {
         "columns":12,
         "firstgid":1,
         "image":"..\/levelSecurityImages\/mainCamera\/lava7.png",
         "imageheight":120,
         "imagewidth":192,
         "margin":0,
         "name":"lava7",
         "spacing":0,
         "tilecount":84,
         "tileheight":16,
         "tilewidth":16,
         "transparentcolor":"#ffffff"
        }],
 "tilewidth":16,
 "version":1,
 "width":105
}