{ "height":24,
 "layers":[
        {
         "data":[1517, 1517, 1517, 1517, 1517, 1517, 1517, 1517, 1517, 1517, 1517, 1517, 1517, 1517, 1517, 1517, 1517, 1517, 1517, 1517, 1517, 1517, 1517, 1517, 1517, 1517, 1517, 1517, 1517, 1517, 1517, 1517, 1517, 1517, 1517, 1517, 1517, 1517, 1517, 1517, 1517, 1517, 1517, 1517, 1517, 1517, 1517, 1517, 1517, 1517, 1517, 1517, 1517, 1517, 1517, 1517, 1517, 1517, 1517, 1517, 1517, 1517, 1517, 1517, 1517, 1517, 1517, 1517, 1517, 1517, 1517, 1517, 1517, 1517, 1517, 1517, 1517, 1517, 1517, 1517, 1517, 1517, 1517, 1517, 1517, 1517, 1517, 1517, 1517, 1517, 1517, 1517, 1517, 1517, 1517, 1517, 1517, 1517, 1517, 1517, 1517, 1517, 1517, 1517, 1517, 1517, 1517, 1517, 1517, 1517, 1517, 1517, 1517, 1517, 1517, 1517, 1517, 1517, 1517, 1517, 1517, 1517, 1517, 1517, 1517, 1517, 1517, 1517, 1517, 1517, 1517, 1517, 1517, 1517, 1517, 1517, 1517, 1517, 1517, 1517, 1517, 1517, 1517, 1517, 1517, 1517, 1517, 1517, 1517, 1517, 1517, 1517, 1517, 1517, 1517, 1517, 1517, 1517, 1517, 1517, 1517, 1517, 1517, 1517, 1517, 1517, 1517, 1517, 1517, 1517, 1517, 1517, 1517, 1517, 1517, 1517, 1517, 1517, 1517, 1517, 1517, 1517, 1517, 1517, 1517, 1517, 1517, 1517, 1517, 1517, 1517, 1517, 1517, 1517, 1517, 1517, 1517, 1517, 1517, 1517, 1517, 1517, 1517, 1517, 1517, 1517, 1517, 1517, 1517, 1517, 1517, 1517, 1517, 1517, 1517, 1517, 1517, 1517, 1517, 1517, 1517, 1517, 1517, 1517, 1517, 1517, 1517, 1517, 1517, 1517, 1517, 1517, 1517, 1517, 1517, 1517, 1517, 1517, 1517, 1517, 1517, 1517, 1517, 1517, 1517, 1517, 1517, 1517, 1517, 1517, 1517, 1517, 1517, 1517, 1517, 1517, 1517, 1517, 1517, 1517, 1517, 1517, 1517, 1517, 1517, 1517, 1517, 1517, 1517, 1517, 1517, 1517, 1517, 1517, 1517, 1517, 1517, 1517, 1517, 1517, 1517, 1517, 1517, 1517, 1517, 1517, 1517, 1517, 1517, 1517, 1517, 1517, 1517, 1517, 1517, 1517, 1517, 1517, 1517, 1517, 1517, 1517, 1517, 1517, 1517, 1517, 1517, 1517, 1517, 1517, 1517, 1517, 1517, 1517, 1517, 1517, 1517, 1517, 1517, 1517, 1517, 1517, 1517, 1517, 1517, 1517, 1517, 1517, 1517, 1517, 1517, 1517, 1517, 1517, 1517, 1517, 1517, 1517, 1517, 1517, 1517, 1517, 1517, 1517, 1517, 1517, 1517, 1517, 1517, 1517, 1517, 1517, 1517, 1517, 1517, 1517, 1517, 1517, 1517, 1517, 1517, 1517, 1517, 1517, 1517, 1517, 1517, 1517, 1517, 1517, 1517, 1517, 1517, 1517, 1517, 1517, 1517, 1517, 1517, 1517, 1517, 1517, 1517, 1517, 1517, 1517, 1517, 1517, 1517, 1517, 1517, 1517, 1517, 1517, 1517, 1517, 1517, 1517, 1517, 1517, 1517, 1517, 1517, 1517, 1517, 1517, 1517, 1517, 1517, 1517, 1517, 1517, 1517, 1517, 1517, 1517, 1517, 1517, 1517, 1517, 1517, 1517, 1517, 1517, 1517, 1517, 1517, 1517, 1517, 1517, 1517, 1517, 1517, 1517, 1517, 1517, 1517, 1517, 1517, 1517, 1517, 1517, 1517, 1517, 1517, 1517, 1517, 1517, 1517, 1517, 1517, 1517, 1517, 1517, 1517, 1517, 1517, 1517, 1517, 1517, 1517, 1517, 1517, 1517, 1517, 1517, 1517, 1517, 1517, 1517, 1517, 1517, 1517, 1517, 1517, 1517, 1517, 1517, 1517, 1517, 1517, 1517, 1517, 1517, 1517, 1517, 1517, 1517, 1517, 1517, 1517, 1517, 1517, 1517, 1517, 1517, 1517, 1517, 1517, 1517, 1517, 1517, 1517, 1517, 1517, 1517, 1517, 1517, 1517, 1517, 1517, 1517, 1517, 1517, 1517, 1517, 1517, 1517, 1517, 1517, 1517, 1517, 1517, 1517, 1517, 1517, 1517, 1517, 1517, 1517, 1517, 1517, 1517, 1517, 1517, 1517, 1517, 1517, 1517, 1517, 1517, 1517, 1517, 1517, 1517, 1517, 1517, 1517, 1517, 1517, 1517, 1517, 1517, 1517, 1517, 1517, 1517, 1517, 1517, 1517, 1517, 1517, 1517, 1517, 1517, 1517, 1517, 1517, 1517, 1517, 1517, 1517, 1517, 1517, 1517, 1517, 1517, 1517, 1517, 1517, 1517, 1517, 1517, 1517, 1517, 1517, 1517, 1517, 1517, 1517, 1517, 1517, 1517, 1517, 1517, 1517, 1517, 1517, 1517, 1517, 1517, 1517, 1517, 1517, 1517, 1517, 1517, 1517, 1517, 1517, 1517, 1517, 1517, 1517, 1517, 1517, 1517, 1517, 1517, 1517, 1517, 1517, 1517, 1517, 1517, 1517, 1517, 1517, 1517, 1517, 1517, 1517, 1517, 1517, 1517, 1517, 1517, 1517, 1517, 1517, 1517, 1517, 1517, 1517, 1517, 1517, 1517, 1517, 1517, 1517, 1517, 1517, 1517, 1517, 1517, 1517, 1517, 1517, 1517, 1517, 1517, 1517, 1517, 1517, 1517, 1517, 1517, 1517, 1517, 1517, 1517, 1517, 1517, 1517, 1517, 1517, 1517, 1517, 1517, 1517, 1517, 1517, 1517, 1517, 1517, 1517, 1517, 1517, 1517, 1517, 1517, 1517, 1517, 1517, 1517, 1517, 1517, 1517, 1517, 1517, 1517, 1517, 1517, 1517, 1517, 1517, 1517, 1517, 1517, 1517, 1517, 1517, 1517, 1517, 1517, 1517, 1517, 1517, 1517, 1517, 1517, 1517, 1517, 1517, 1517, 1517, 1517, 1517, 1517, 1517, 1517, 1517, 1517, 1517, 1517, 1517, 1517, 1517, 1517, 1517, 1517, 1517, 1517, 1517, 1517, 1517, 1517, 1517, 1517, 1517, 1517, 1517, 1517, 1517, 1517, 1517, 1517, 1517, 1517, 1517, 1517, 1517, 1517, 1517, 1517, 1517, 1517, 1517, 1517, 1517, 1517, 1517, 1517, 1517, 1517, 1517, 1517, 1517, 1517, 1517, 1517, 1517, 1517, 1517, 1517, 1517, 1517, 1517, 1517, 1517, 1517, 1517, 1517, 1517, 1517, 1517, 1517, 1517, 1517, 1517, 1517, 1517, 1517, 1517, 1517, 1517, 1517, 1517, 1517, 1517, 1517, 1517, 1517, 1517, 1517, 1517, 1517, 1517, 1517, 1517, 1517, 1517, 1517, 1517, 1517, 1517, 1517, 1517, 1517, 1517, 1517, 1517, 1517, 1517, 1517, 1517, 1517, 1517, 1517, 1517, 1517, 1517, 1517, 1517, 1517, 1517, 1517, 1517, 1517, 1517, 1517, 1517, 1517, 1517, 1517, 1517, 1517, 1517, 1517, 1517, 1517, 1517, 1517, 1517, 1517, 1517, 1517, 1517, 1517, 1517, 1517, 1517, 1517, 1517, 1517, 1517, 1517, 1517, 1517, 1517, 1517, 1517, 1517, 1517, 1517, 1517, 1517, 1517, 1517, 1517, 1517, 1517, 1517, 1517, 1517, 1517, 1517, 1517, 1517, 1517, 1517, 1517, 1517, 1517, 1517, 1517, 1517, 1517, 1517, 1517, 1517, 1517, 1517, 1517, 1517, 1517, 1517, 1517, 1517, 1517, 1517, 1517, 1517, 1517, 1517, 1517, 1517, 1517, 1517, 1517, 1517, 1517, 1517, 1517, 1517, 1517, 1517, 1517, 1517, 1517, 1517, 1517, 1517, 1517, 1517, 1517, 1517, 1517, 1517, 1517, 1517, 1517, 1517, 1517, 1517, 1517, 1517, 1517, 1517, 1517, 1517, 1517, 1517, 1517, 1517, 1517, 1517, 1517, 1517, 1517, 1517, 1517, 1517, 1517, 1517, 1517, 1517, 1517, 1517, 1517, 1517, 1517, 1517, 1517, 1517, 1517, 1517, 1517, 1517, 1517, 1517, 1517, 1517, 1517, 1517, 1517, 1517, 1517, 1517, 1517, 1517, 1517, 1517, 1517, 1517, 1517, 1517, 1517, 1517, 1517, 1517, 1517, 1517, 1517, 1517, 1517, 1517, 1517, 1517, 1517, 1517, 1517, 1517, 1517, 1517, 1517, 1517, 1517, 1517, 1517, 1517, 1517, 1517, 1517, 1517, 1517, 1517, 1517, 1517, 1517, 1517, 1517, 1517, 1517, 1517, 1517, 1517, 1517, 1517, 1517, 1517, 1517, 1517, 1517, 1517, 1517, 1517, 1517, 1517, 1517, 1517, 1517, 1517, 1517, 1517, 1517, 1517, 1517, 1517, 1517, 1517, 1517, 1517, 1517, 1517, 1517, 1517, 1517, 1517, 1517, 1517, 1517, 1517, 1517, 1517, 1517, 1517, 1517, 1517, 1517, 1517, 1517, 1517, 1517, 1517, 1517, 1517, 1517, 1517, 1517, 1517, 1517, 1517, 1517, 1517, 1517, 1517, 1517, 1517, 1517, 1517, 1517, 1517, 1517, 1517, 1517, 1517, 1517, 1517, 1517, 1517, 1517, 1517, 1517, 1517, 1517, 1517, 1517, 1517, 1517, 1517, 1517, 1517, 1517, 1517, 1517, 1517, 1517, 1517, 1517, 1517, 1517, 1517, 1517, 1517, 1517, 1517, 1517, 1517, 1517, 1517, 1517],
         "height":24,
         "name":"botLayer",
         "opacity":1,
         "type":"tilelayer",
         "visible":true,
         "width":48,
         "x":0,
         "y":0
        }, 
        {
         "data":[0, 0, 0, 0, 0, 0, 0, 0, 0, 0, 0, 0, 0, 0, 0, 0, 0, 0, 0, 0, 0, 0, 0, 0, 0, 0, 0, 0, 0, 0, 0, 0, 0, 0, 0, 0, 0, 0, 0, 0, 0, 0, 0, 0, 0, 0, 0, 0, 0, 0, 0, 0, 0, 0, 0, 0, 0, 0, 0, 0, 0, 0, 0, 0, 0, 0, 0, 0, 0, 0, 0, 0, 0, 0, 0, 0, 0, 0, 0, 0, 0, 0, 0, 0, 0, 0, 0, 0, 0, 0, 0, 0, 0, 0, 0, 0, 0, 0, 0, 0, 0, 0, 0, 0, 0, 0, 0, 0, 0, 0, 0, 0, 0, 0, 0, 0, 0, 0, 0, 0, 0, 0, 0, 0, 0, 0, 0, 0, 0, 0, 0, 0, 0, 0, 0, 0, 0, 0, 0, 0, 0, 0, 0, 0, 0, 0, 0, 0, 0, 0, 0, 0, 0, 0, 0, 0, 0, 0, 0, 0, 0, 0, 0, 0, 0, 0, 0, 0, 0, 0, 0, 0, 0, 0, 0, 0, 0, 0, 0, 0, 0, 0, 0, 0, 0, 0, 0, 0, 0, 0, 0, 0, 0, 0, 0, 0, 0, 0, 0, 0, 0, 0, 0, 0, 0, 0, 0, 0, 0, 0, 0, 0, 0, 0, 0, 0, 0, 0, 0, 0, 0, 0, 0, 0, 0, 0, 0, 0, 0, 0, 0, 0, 0, 0, 0, 0, 0, 0, 0, 0, 0, 0, 0, 0, 0, 0, 0, 0, 0, 0, 0, 0, 0, 0, 0, 0, 0, 0, 0, 0, 0, 2144, 0, 0, 0, 0, 0, 0, 0, 0, 0, 0, 0, 0, 0, 0, 0, 0, 0, 0, 0, 0, 0, 0, 0, 0, 0, 0, 0, 0, 0, 0, 0, 0, 0, 0, 0, 0, 0, 0, 0, 0, 0, 0, 0, 0, 0, 0, 0, 0, 0, 0, 0, 0, 0, 0, 0, 0, 0, 0, 0, 0, 0, 0, 0, 0, 0, 0, 0, 0, 0, 0, 0, 0, 0, 0, 0, 0, 0, 0, 0, 0, 0, 0, 0, 0, 0, 0, 0, 0, 0, 0, 0, 0, 0, 0, 0, 0, 0, 0, 0, 0, 0, 0, 0, 0, 0, 0, 0, 0, 0, 0, 0, 0, 0, 0, 0, 0, 0, 0, 0, 0, 0, 0, 0, 0, 0, 0, 0, 0, 0, 0, 0, 0, 0, 0, 0, 0, 0, 0, 0, 0, 0, 0, 0, 0, 0, 0, 0, 0, 0, 0, 0, 0, 0, 0, 0, 0, 0, 0, 0, 0, 0, 0, 0, 0, 0, 0, 0, 0, 0, 0, 0, 0, 0, 0, 0, 0, 0, 0, 0, 0, 0, 0, 0, 0, 0, 0, 0, 0, 0, 0, 0, 0, 0, 0, 0, 0, 0, 0, 0, 0, 0, 0, 0, 0, 0, 0, 0, 0, 0, 0, 0, 0, 0, 0, 0, 0, 0, 0, 0, 0, 0, 0, 0, 0, 0, 0, 0, 0, 0, 0, 0, 0, 0, 0, 0, 0, 0, 0, 0, 0, 0, 0, 0, 0, 0, 0, 0, 0, 0, 0, 0, 0, 0, 0, 0, 0, 0, 0, 0, 0, 0, 0, 0, 0, 0, 0, 0, 0, 0, 0, 0, 0, 0, 0, 0, 0, 0, 0, 0, 0, 0, 0, 0, 0, 0, 0, 0, 0, 0, 0, 0, 0, 0, 0, 0, 0, 0, 0, 0, 0, 0, 0, 0, 0, 0, 0, 0, 0, 0, 0, 0, 0, 0, 0, 0, 0, 0, 0, 0, 0, 0, 0, 0, 0, 0, 0, 0, 0, 0, 0, 0, 0, 0, 0, 0, 0, 0, 0, 0, 0, 0, 0, 0, 0, 0, 0, 0, 0, 0, 0, 0, 0, 0, 0, 0, 0, 0, 0, 0, 0, 0, 0, 0, 0, 0, 0, 0, 0, 0, 0, 0, 0, 0, 0, 0, 0, 0, 0, 0, 0, 0, 0, 0, 0, 0, 0, 0, 0, 0, 0, 0, 0, 0, 0, 0, 0, 0, 0, 0, 0, 0, 0, 0, 0, 0, 0, 0, 0, 0, 0, 0, 0, 0, 0, 0, 0, 0, 0, 0, 0, 0, 0, 0, 0, 0, 0, 0, 0, 0, 0, 0, 0, 0, 0, 0, 0, 0, 0, 0, 0, 0, 0, 0, 0, 0, 0, 0, 0, 0, 0, 0, 0, 0, 0, 0, 0, 0, 0, 0, 0, 0, 0, 0, 0, 0, 0, 0, 0, 0, 0, 0, 0, 0, 0, 0, 0, 0, 0, 0, 0, 0, 0, 0, 0, 0, 0, 0, 0, 0, 0, 0, 0, 0, 0, 0, 0, 0, 0, 0, 0, 0, 0, 0, 0, 0, 0, 0, 0, 0, 0, 0, 0, 0, 0, 0, 2040, 0, 0, 0, 0, 0, 0, 0, 0, 0, 0, 0, 0, 0, 0, 0, 0, 0, 0, 0, 0, 0, 0, 0, 0, 0, 0, 0, 0, 0, 0, 0, 0, 0, 0, 0, 0, 0, 0, 0, 0, 0, 0, 0, 0, 0, 0, 0, 2056, 2219, 2111, 0, 0, 0, 0, 0, 0, 0, 0, 0, 0, 0, 0, 0, 0, 0, 0, 0, 0, 0, 0, 0, 0, 0, 0, 0, 0, 0, 0, 0, 0, 0, 0, 0, 0, 0, 0, 0, 0, 0, 0, 0, 0, 0, 0, 0, 0, 0, 0, 0, 0, 0, 0, 0, 0, 0, 0, 0, 0, 0, 0, 0, 0, 0, 0, 0, 0, 0, 0, 0, 0, 0, 0, 0, 0, 0, 0, 0, 0, 0, 0, 0, 0, 0, 0, 0, 0, 0, 0, 0, 0, 0, 0, 0, 0, 0, 0, 0, 0, 0, 0, 0, 0, 0, 0, 0, 0, 2758, 2759, 1983, 2737, 2738, 2739, 0, 0, 0, 0, 0, 0, 0, 0, 0, 0, 0, 0, 0, 0, 0, 0, 0, 0, 0, 0, 0, 0, 0, 0, 0, 0, 0, 0, 0, 0, 0, 0, 0, 0, 0, 0, 0, 0, 0, 0, 0, 0, 0, 0, 0, 2758, 2759, 2760, 0, 0, 0, 0, 0, 0, 0, 0, 0, 0, 0, 0, 0, 0, 0, 0, 0, 0, 0, 0, 0, 0, 0, 0, 0, 0, 0, 0, 0, 0, 0, 0, 0, 0, 0, 0, 0, 0, 0, 0, 0, 0, 0, 0, 0, 0, 0, 0, 0, 0, 0, 0, 0, 0, 0, 0, 0, 0, 0, 0, 0, 0, 0, 0, 0, 0, 0, 0, 0, 0, 0, 0, 0, 0, 0, 0, 0, 0, 0, 0, 0, 0, 0, 0, 0, 0, 0, 0, 0, 0, 0, 0, 0, 0, 0, 0, 0, 0, 0, 0, 0, 0, 0, 0, 0, 0, 0, 0, 0, 0, 0, 0, 0, 0, 0, 0, 0, 0, 0, 0, 0, 0, 0, 0, 0, 0, 0, 0, 0, 0, 0, 0, 0, 0, 0, 0, 0, 0, 0, 0, 0, 0, 0, 0, 0, 0, 0, 0, 0, 0, 0, 0, 0, 0, 0, 0, 0, 0, 0, 0, 0, 0, 0, 0],
         "height":24,
         "name":"secondBotLayer",
         "opacity":1,
         "type":"tilelayer",
         "visible":true,
         "width":48,
         "x":0,
         "y":0
        }, 
        {
         "data":[2464, 2465, 2466, 2466, 2466, 2466, 2466, 2466, 2466, 2466, 2466, 2465, 2466, 2466, 2466, 2466, 2466, 2466, 2466, 2466, 2466, 2466, 2466, 2466, 2466, 2466, 2466, 2466, 2466, 2465, 2466, 2466, 2466, 2466, 2466, 2466, 2466, 2466, 2466, 2466, 2466, 2466, 2466, 2466, 2466, 2466, 2466, 2467, 2470, 0, 0, 0, 0, 0, 0, 0, 0, 0, 0, 0, 0, 0, 0, 0, 0, 0, 0, 0, 0, 0, 0, 0, 0, 0, 0, 0, 0, 0, 0, 0, 0, 0, 0, 0, 0, 0, 0, 0, 0, 0, 0, 0, 0, 0, 0, 2473, 2476, 0, 0, 0, 0, 0, 0, 0, 0, 0, 0, 0, 0, 0, 0, 0, 0, 0, 0, 0, 0, 0, 0, 0, 0, 0, 0, 0, 0, 0, 0, 0, 0, 0, 0, 0, 0, 0, 0, 0, 0, 0, 0, 0, 0, 0, 0, 2479, 2476, 0, 0, 0, 0, 0, 0, 0, 0, 0, 0, 0, 0, 0, 0, 0, 0, 0, 0, 0, 0, 0, 0, 0, 0, 0, 0, 0, 0, 0, 0, 0, 0, 0, 0, 0, 0, 0, 0, 0, 0, 0, 0, 0, 0, 0, 0, 2473, 2476, 0, 0, 0, 0, 0, 0, 0, 0, 0, 0, 0, 0, 0, 0, 0, 0, 0, 0, 0, 0, 2128, 0, 0, 0, 0, 0, 0, 0, 0, 0, 0, 0, 0, 0, 0, 0, 0, 0, 0, 0, 0, 0, 0, 0, 0, 0, 2479, 2476, 0, 0, 0, 0, 0, 0, 0, 0, 0, 0, 0, 0, 0, 0, 0, 0, 0, 0, 0, 0, 0, 0, 0, 0, 0, 0, 0, 0, 0, 0, 0, 0, 0, 0, 0, 2160, 2157, 2158, 2159, 2164, 0, 0, 0, 0, 0, 0, 2473, 2470, 0, 0, 0, 0, 0, 0, 0, 0, 0, 0, 0, 0, 0, 0, 0, 0, 0, 0, 0, 0, 0, 0, 0, 0, 0, 0, 0, 0, 0, 0, 0, 0, 0, 0, 0, 2176, 2173, 2174, 2175, 2180, 0, 0, 0, 0, 0, 0, 2479, 2476, 0, 0, 0, 0, 0, 0, 0, 0, 0, 0, 0, 0, 0, 0, 0, 0, 0, 0, 0, 0, 0, 0, 0, 0, 0, 0, 0, 0, 0, 0, 0, 0, 0, 0, 1986, 2192, 2193, 2194, 2195, 2196, 1984, 0, 0, 0, 0, 0, 2473, 2476, 0, 0, 0, 0, 0, 0, 0, 0, 0, 0, 0, 0, 0, 0, 0, 0, 0, 0, 0, 0, 0, 0, 0, 0, 0, 0, 0, 0, 0, 0, 0, 0, 0, 0, 2002, 2208, 2224, 2210, 2211, 2212, 2000, 0, 0, 0, 0, 0, 2479, 2476, 0, 0, 0, 0, 0, 0, 0, 0, 0, 0, 0, 0, 0, 0, 0, 0, 0, 0, 0, 0, 0, 0, 0, 0, 0, 0, 0, 0, 0, 0, 0, 0, 0, 0, 0, 0, 0, 0, 0, 0, 0, 0, 0, 0, 0, 0, 2473, 2476, 0, 0, 0, 0, 0, 0, 0, 0, 0, 0, 0, 0, 0, 0, 0, 0, 0, 0, 0, 0, 0, 0, 0, 0, 0, 0, 0, 0, 0, 0, 0, 0, 0, 0, 0, 0, 0, 0, 0, 0, 0, 0, 0, 0, 0, 0, 2479, 2476, 0, 0, 0, 0, 0, 0, 0, 0, 0, 0, 0, 0, 0, 0, 0, 0, 0, 0, 0, 0, 0, 0, 0, 0, 0, 0, 0, 0, 0, 0, 0, 0, 0, 0, 0, 0, 0, 0, 0, 0, 0, 0, 0, 0, 0, 0, 2473, 2476, 0, 0, 0, 0, 0, 0, 0, 0, 0, 0, 0, 0, 0, 0, 0, 0, 0, 0, 0, 0, 0, 0, 0, 0, 0, 0, 0, 0, 0, 0, 0, 0, 0, 0, 0, 0, 0, 0, 0, 0, 0, 0, 0, 0, 0, 0, 2479, 2476, 0, 0, 0, 0, 0, 0, 0, 0, 0, 0, 0, 0, 0, 0, 0, 0, 0, 0, 0, 0, 0, 0, 0, 0, 0, 0, 0, 0, 0, 0, 0, 0, 0, 0, 0, 0, 0, 0, 0, 0, 0, 0, 0, 0, 0, 0, 2479, 2476, 0, 0, 0, 0, 0, 1994, 0, 2169, 2170, 2171, 0, 1994, 0, 0, 0, 0, 0, 0, 0, 0, 0, 0, 0, 0, 0, 0, 0, 0, 0, 0, 0, 0, 0, 0, 0, 0, 0, 0, 0, 0, 0, 0, 0, 0, 0, 0, 2479, 2476, 0, 0, 0, 0, 0, 2010, 2077, 2165, 2166, 2167, 2079, 2010, 0, 0, 0, 0, 0, 0, 0, 0, 0, 0, 0, 0, 0, 0, 0, 0, 0, 0, 0, 0, 0, 0, 0, 0, 0, 0, 0, 0, 0, 0, 0, 0, 0, 0, 2479, 2476, 0, 0, 0, 0, 0, 2026, 2093, 2181, 2040, 2183, 2095, 2026, 0, 0, 0, 0, 0, 0, 0, 0, 0, 0, 0, 0, 0, 0, 0, 0, 0, 0, 0, 0, 0, 0, 0, 0, 0, 0, 0, 0, 0, 0, 0, 0, 0, 0, 2479, 2476, 0, 0, 0, 0, 0, 0, 2109, 2232, 0, 0, 0, 0, 0, 0, 0, 0, 0, 0, 0, 0, 0, 0, 0, 0, 0, 0, 0, 0, 0, 0, 0, 0, 0, 0, 0, 0, 0, 0, 0, 0, 0, 0, 0, 0, 0, 0, 2479, 2476, 0, 0, 0, 0, 0, 0, 0, 0, 0, 0, 0, 0, 0, 0, 0, 0, 0, 0, 0, 0, 0, 2737, 2738, 0, 0, 2732, 0, 0, 0, 0, 0, 0, 0, 0, 0, 0, 0, 0, 0, 0, 0, 0, 0, 0, 0, 0, 2479, 2476, 0, 0, 0, 0, 0, 0, 0, 0, 0, 0, 0, 0, 0, 0, 0, 0, 0, 0, 0, 0, 0, 0, 0, 0, 0, 0, 0, 0, 0, 0, 0, 0, 0, 0, 0, 0, 0, 0, 0, 0, 0, 0, 0, 0, 0, 0, 2479, 2476, 0, 2047, 2048, 0, 0, 0, 0, 0, 0, 0, 0, 0, 0, 0, 0, 0, 0, 0, 0, 0, 0, 0, 0, 0, 0, 0, 0, 0, 0, 0, 0, 0, 0, 0, 0, 0, 0, 0, 0, 0, 0, 0, 0, 0, 0, 0, 2479, 2476, 0, 0, 0, 0, 0, 0, 0, 0, 0, 0, 0, 0, 0, 0, 0, 0, 0, 0, 0, 0, 0, 0, 0, 0, 0, 0, 0, 0, 0, 0, 0, 0, 0, 0, 0, 0, 0, 0, 0, 0, 0, 0, 0, 0, 0, 0, 2479, 2476, 0, 0, 0, 0, 0, 0, 0, 0, 0, 0, 0, 0, 0, 0, 0, 0, 0, 0, 0, 0, 0, 0, 0, 0, 0, 0, 0, 0, 0, 0, 0, 0, 0, 0, 0, 0, 0, 0, 0, 0, 0, 0, 0, 0, 0, 0, 2479, 2482, 2465, 2466, 2466, 2466, 2466, 2466, 2465, 2466, 2466, 2466, 2466, 2466, 2466, 2465, 2466, 2466, 2466, 2466, 2466, 2466, 2466, 2466, 2465, 2466, 2466, 2466, 2466, 2466, 2466, 2466, 2466, 2466, 2466, 2466, 2466, 2466, 2466, 2466, 2466, 2466, 2466, 2466, 2466, 2466, 2466, 2466, 2485],
         "height":24,
         "name":"topLayer",
         "opacity":1,
         "type":"tilelayer",
         "visible":true,
         "width":48,
         "x":0,
         "y":0
        }, 
        {
         "data":[0, 0, 0, 0, 0, 0, 0, 0, 0, 0, 0, 0, 0, 0, 0, 0, 0, 0, 0, 0, 0, 0, 0, 0, 0, 0, 0, 0, 0, 0, 0, 0, 0, 0, 0, 0, 0, 0, 0, 0, 0, 0, 0, 0, 0, 0, 0, 0, 0, 0, 0, 0, 0, 0, 0, 0, 0, 0, 0, 0, 0, 0, 0, 0, 0, 0, 0, 0, 0, 0, 0, 0, 0, 0, 0, 0, 0, 0, 0, 0, 0, 0, 0, 0, 0, 0, 0, 0, 0, 0, 0, 0, 0, 0, 0, 0, 0, 0, 0, 0, 0, 0, 0, 0, 0, 0, 0, 0, 0, 0, 0, 0, 0, 0, 0, 0, 0, 0, 0, 0, 0, 0, 0, 0, 0, 0, 0, 0, 0, 0, 0, 0, 0, 0, 0, 0, 0, 0, 0, 0, 0, 0, 0, 0, 0, 0, 0, 0, 0, 0, 0, 0, 0, 0, 0, 0, 0, 0, 0, 0, 0, 0, 0, 0, 2607, 0, 0, 0, 0, 0, 0, 0, 0, 0, 0, 0, 0, 0, 0, 0, 0, 0, 0, 0, 0, 0, 0, 0, 0, 0, 0, 0, 0, 0, 0, 0, 0, 0, 0, 0, 0, 0, 0, 0, 0, 0, 0, 0, 0, 0, 0, 0, 2628, 0, 0, 0, 0, 0, 0, 0, 0, 0, 0, 0, 0, 0, 0, 0, 0, 0, 0, 0, 0, 0, 0, 0, 0, 0, 0, 0, 0, 0, 0, 0, 0, 0, 0, 0, 0, 0, 0, 0, 0, 0, 0, 0, 0, 0, 0, 0, 0, 0, 0, 0, 0, 0, 0, 0, 0, 0, 0, 0, 0, 0, 0, 2051, 2052, 0, 0, 0, 2615, 2616, 0, 0, 0, 0, 0, 0, 0, 0, 0, 0, 0, 0, 0, 0, 0, 0, 0, 0, 0, 0, 0, 0, 0, 0, 0, 0, 0, 0, 0, 0, 0, 0, 0, 0, 0, 0, 0, 0, 0, 0, 0, 2067, 2068, 0, 0, 0, 2636, 2637, 2638, 0, 0, 0, 0, 0, 0, 0, 0, 0, 0, 0, 0, 0, 0, 0, 0, 0, 0, 0, 0, 0, 0, 0, 0, 0, 0, 0, 0, 0, 0, 0, 0, 0, 0, 0, 0, 0, 0, 0, 0, 2083, 2084, 0, 0, 0, 2657, 2658, 0, 0, 0, 0, 0, 0, 0, 0, 0, 0, 0, 0, 0, 0, 0, 0, 0, 0, 0, 0, 0, 0, 0, 0, 0, 0, 0, 0, 0, 0, 0, 0, 0, 0, 0, 0, 0, 0, 0, 0, 0, 0, 0, 2100, 0, 1981, 2678, 2679, 0, 0, 0, 0, 0, 0, 0, 0, 0, 0, 0, 0, 0, 0, 0, 0, 0, 0, 0, 0, 0, 0, 0, 0, 0, 0, 0, 0, 0, 0, 0, 0, 0, 0, 0, 0, 0, 0, 0, 0, 0, 0, 0, 0, 0, 0, 0, 0, 0, 0, 0, 0, 0, 0, 0, 0, 0, 0, 0, 0, 0, 0, 0, 0, 0, 0, 0, 0, 0, 0, 0, 0, 0, 0, 0, 0, 0, 0, 0, 0, 0, 0, 0, 0, 0, 0, 0, 0, 0, 0, 0, 0, 0, 0, 0, 0, 0, 0, 0, 0, 0, 0, 0, 0, 0, 0, 0, 0, 0, 0, 0, 0, 0, 0, 0, 0, 0, 0, 0, 0, 0, 0, 0, 0, 0, 0, 0, 0, 0, 0, 0, 0, 0, 0, 0, 0, 0, 0, 0, 0, 0, 0, 0, 0, 0, 0, 0, 0, 0, 0, 0, 0, 0, 0, 0, 0, 0, 0, 0, 0, 0, 0, 0, 0, 0, 0, 0, 0, 0, 0, 0, 0, 0, 0, 0, 0, 0, 0, 0, 0, 0, 0, 0, 0, 0, 0, 0, 0, 0, 0, 0, 0, 0, 0, 0, 0, 0, 0, 0, 0, 0, 0, 0, 0, 0, 0, 0, 0, 0, 0, 0, 0, 0, 0, 0, 0, 0, 0, 0, 0, 0, 0, 0, 0, 0, 0, 0, 0, 0, 0, 0, 0, 0, 0, 0, 0, 0, 0, 0, 0, 0, 0, 0, 0, 0, 0, 0, 0, 0, 0, 0, 0, 2611, 2612, 2613, 0, 0, 0, 0, 0, 0, 0, 0, 0, 0, 0, 0, 0, 0, 0, 0, 0, 0, 0, 0, 0, 0, 0, 0, 0, 0, 0, 0, 0, 0, 0, 0, 0, 0, 0, 0, 0, 0, 0, 0, 0, 0, 0, 0, 0, 2632, 2633, 2634, 0, 0, 2188, 0, 0, 0, 0, 0, 0, 0, 0, 0, 0, 0, 0, 0, 0, 0, 0, 0, 0, 0, 0, 0, 0, 0, 0, 0, 0, 0, 0, 0, 0, 0, 0, 0, 0, 0, 0, 0, 0, 0, 0, 0, 2652, 2653, 2654, 2655, 2182, 0, 2204, 2060, 0, 0, 0, 0, 0, 0, 0, 0, 0, 0, 2684, 2685, 0, 0, 0, 0, 0, 0, 0, 0, 0, 0, 0, 0, 0, 0, 0, 0, 0, 0, 0, 0, 0, 0, 0, 0, 0, 0, 0, 0, 0, 0, 2675, 2676, 0, 0, 0, 0, 0, 0, 0, 0, 0, 0, 0, 0, 0, 2704, 2705, 2706, 0, 0, 0, 0, 0, 0, 0, 0, 0, 0, 0, 0, 0, 0, 0, 0, 0, 0, 0, 0, 0, 0, 0, 0, 0, 0, 0, 0, 0, 0, 0, 0, 0, 0, 0, 0, 0, 0, 0, 0, 0, 0, 0, 0, 0, 2725, 2726, 2727, 2731, 0, 0, 0, 0, 0, 0, 0, 0, 0, 0, 0, 0, 0, 0, 0, 0, 0, 0, 0, 0, 0, 0, 0, 0, 0, 0, 0, 0, 0, 0, 0, 0, 0, 0, 0, 0, 0, 0, 0, 0, 0, 0, 0, 0, 0, 0, 0, 0, 0, 0, 0, 0, 0, 0, 0, 0, 0, 0, 0, 0, 0, 0, 0, 0, 0, 0, 0, 0, 0, 0, 0, 0, 0, 0, 0, 0, 0, 0, 0, 0, 0, 0, 0, 0, 0, 0, 0, 0, 0, 0, 0, 0, 0, 0, 0, 0, 0, 0, 0, 0, 0, 0, 0, 0, 0, 0, 0, 0, 0, 0, 0, 0, 0, 0, 0, 0, 0, 0, 0, 0, 0, 0, 0, 0, 0, 0, 0, 0, 0, 0, 0, 0, 0, 0, 0, 0, 0, 0, 0, 0, 0, 0, 0, 0, 0, 0, 0, 0, 0, 0, 0, 0, 0, 0, 0, 0, 0, 0, 0, 0, 0, 0, 0, 0, 0, 0, 0, 0, 0, 0, 0, 0, 0, 0, 0, 0, 0, 0, 0, 0, 0, 0, 0, 0, 0, 0, 0, 0, 0, 0, 0, 0, 0, 0, 0, 0, 0, 0, 0, 0, 0, 0, 0, 0, 0, 0, 0, 0, 0, 0, 0, 0, 0, 0, 0, 0, 0, 0, 0, 0, 0, 0, 0, 0, 0, 0, 0, 0, 0, 0, 0, 0, 0, 0, 0, 0, 0, 0, 0, 0, 0, 0, 0, 0, 0, 0, 0, 0, 0, 0, 0, 0, 0, 0, 0, 0, 0, 0, 0, 0, 0, 0],
         "height":24,
         "name":"topTopLayer",
         "opacity":1,
         "type":"tilelayer",
         "visible":true,
         "width":48,
         "x":0,
         "y":0
        }, 
        {
         "data":[0, 0, 0, 0, 0, 0, 0, 0, 0, 0, 0, 0, 0, 0, 0, 0, 0, 0, 0, 0, 0, 0, 0, 0, 0, 0, 0, 0, 0, 0, 0, 0, 0, 0, 0, 0, 0, 0, 0, 0, 0, 0, 0, 0, 0, 0, 0, 0, 0, 0, 0, 0, 0, 0, 0, 0, 0, 0, 0, 0, 0, 0, 0, 0, 0, 0, 0, 0, 0, 0, 0, 0, 0, 0, 0, 0, 0, 0, 0, 0, 0, 0, 0, 0, 0, 0, 0, 0, 0, 0, 0, 0, 0, 0, 0, 0, 0, 0, 0, 0, 0, 0, 0, 0, 0, 0, 0, 0, 0, 0, 0, 0, 0, 0, 0, 0, 0, 0, 0, 0, 0, 0, 0, 0, 0, 0, 0, 0, 0, 0, 0, 0, 0, 0, 0, 0, 0, 0, 0, 0, 0, 0, 0, 0, 0, 0, 0, 0, 0, 0, 0, 0, 0, 0, 0, 0, 0, 0, 0, 0, 0, 0, 0, 2606, 0, 2608, 0, 0, 0, 0, 0, 0, 0, 0, 0, 0, 0, 0, 0, 0, 0, 0, 0, 0, 0, 0, 0, 0, 0, 0, 0, 0, 0, 0, 0, 0, 0, 0, 0, 0, 0, 0, 0, 0, 0, 0, 0, 0, 0, 0, 0, 2627, 0, 2629, 0, 0, 0, 0, 0, 0, 0, 0, 0, 0, 0, 0, 0, 0, 0, 0, 0, 0, 0, 0, 0, 0, 0, 0, 0, 0, 0, 0, 0, 0, 0, 0, 0, 0, 0, 0, 0, 0, 0, 0, 0, 0, 0, 0, 0, 2648, 2649, 2650, 0, 0, 0, 0, 0, 0, 0, 0, 0, 0, 0, 0, 0, 0, 0, 0, 0, 0, 0, 0, 2617, 0, 0, 0, 0, 0, 0, 0, 0, 0, 0, 0, 0, 0, 0, 0, 0, 0, 0, 0, 0, 0, 0, 0, 0, 2669, 2670, 2671, 0, 0, 0, 0, 0, 0, 0, 0, 0, 0, 0, 0, 0, 0, 0, 0, 0, 0, 0, 0, 0, 0, 0, 0, 0, 0, 0, 0, 0, 0, 0, 0, 0, 0, 0, 0, 0, 0, 0, 0, 0, 0, 0, 0, 0, 0, 0, 0, 0, 0, 0, 0, 0, 0, 0, 0, 0, 0, 0, 0, 0, 0, 0, 0, 0, 0, 0, 0, 2659, 0, 0, 0, 0, 0, 0, 0, 0, 0, 0, 0, 0, 0, 0, 0, 0, 0, 0, 0, 0, 0, 0, 0, 0, 0, 0, 0, 0, 0, 0, 0, 0, 0, 0, 0, 0, 0, 0, 0, 0, 0, 0, 0, 0, 0, 1982, 0, 2680, 0, 0, 0, 0, 0, 0, 0, 0, 0, 0, 0, 0, 0, 0, 0, 0, 0, 0, 0, 0, 0, 0, 0, 0, 0, 0, 0, 0, 0, 0, 0, 0, 0, 0, 0, 0, 0, 0, 0, 0, 0, 0, 2116, 0, 1997, 1998, 0, 2701, 0, 0, 0, 0, 0, 0, 0, 0, 0, 0, 0, 0, 0, 0, 0, 0, 0, 0, 0, 0, 0, 0, 0, 0, 0, 0, 0, 0, 0, 0, 0, 0, 0, 0, 0, 0, 0, 0, 0, 0, 0, 0, 0, 0, 0, 0, 0, 0, 0, 0, 0, 0, 0, 0, 0, 0, 0, 0, 0, 0, 0, 0, 0, 0, 0, 0, 0, 0, 0, 0, 0, 0, 0, 0, 0, 0, 0, 0, 0, 0, 0, 0, 0, 0, 0, 0, 0, 0, 0, 0, 0, 0, 0, 0, 0, 0, 0, 0, 0, 0, 0, 0, 0, 0, 0, 0, 0, 0, 0, 0, 0, 0, 0, 0, 0, 0, 0, 0, 0, 0, 0, 0, 0, 0, 0, 0, 0, 0, 0, 0, 0, 0, 0, 0, 0, 0, 0, 0, 0, 0, 0, 0, 0, 0, 0, 0, 0, 0, 0, 0, 0, 0, 0, 0, 0, 0, 0, 0, 0, 0, 0, 0, 0, 0, 0, 0, 0, 0, 0, 0, 0, 0, 0, 0, 0, 0, 0, 0, 0, 0, 0, 0, 0, 0, 0, 0, 0, 0, 0, 0, 0, 0, 0, 0, 0, 0, 0, 0, 0, 0, 0, 0, 0, 0, 0, 0, 0, 0, 0, 0, 0, 0, 0, 0, 0, 0, 0, 0, 0, 0, 0, 0, 0, 0, 0, 0, 0, 0, 0, 0, 0, 0, 0, 0, 0, 0, 0, 0, 0, 0, 0, 0, 0, 0, 0, 0, 0, 0, 0, 0, 2631, 0, 0, 0, 0, 0, 0, 0, 0, 0, 0, 0, 0, 0, 0, 0, 0, 0, 0, 0, 0, 0, 0, 0, 0, 0, 0, 0, 0, 0, 0, 0, 0, 0, 0, 0, 0, 0, 0, 0, 0, 0, 0, 0, 0, 0, 0, 0, 0, 0, 0, 0, 0, 0, 0, 0, 0, 0, 0, 0, 0, 0, 0, 0, 0, 2683, 2687, 2688, 0, 0, 0, 0, 0, 0, 0, 0, 0, 0, 0, 0, 0, 0, 0, 0, 0, 0, 0, 0, 0, 0, 0, 0, 0, 0, 0, 2672, 2673, 2674, 0, 0, 2218, 1989, 2220, 2076, 0, 0, 0, 0, 0, 0, 0, 0, 0, 0, 2708, 2709, 2710, 0, 0, 0, 0, 0, 0, 0, 0, 0, 0, 0, 0, 0, 0, 1983, 0, 0, 0, 0, 0, 0, 0, 0, 0, 0, 0, 2693, 2694, 2695, 2696, 2697, 0, 2005, 0, 2092, 0, 0, 0, 0, 0, 0, 0, 0, 0, 0, 2729, 2730, 0, 0, 0, 0, 0, 0, 0, 0, 0, 0, 0, 0, 0, 0, 0, 0, 0, 0, 0, 0, 0, 0, 0, 0, 0, 0, 0, 0, 0, 0, 0, 0, 0, 0, 0, 0, 0, 0, 0, 0, 0, 0, 0, 0, 0, 2746, 2747, 2751, 2752, 2753, 2754, 0, 0, 0, 0, 0, 0, 0, 0, 0, 0, 0, 0, 0, 0, 0, 0, 0, 0, 0, 0, 0, 0, 0, 0, 0, 0, 0, 0, 0, 0, 0, 0, 0, 0, 0, 0, 0, 0, 0, 0, 0, 0, 2767, 2768, 2772, 2773, 2774, 2775, 0, 0, 0, 0, 0, 0, 0, 0, 0, 0, 0, 0, 0, 0, 0, 0, 0, 0, 0, 0, 0, 0, 2063, 2064, 0, 0, 0, 0, 0, 0, 0, 0, 0, 0, 0, 0, 0, 0, 0, 0, 0, 0, 0, 0, 0, 0, 0, 0, 0, 0, 0, 0, 0, 0, 0, 0, 0, 0, 0, 0, 0, 0, 0, 0, 0, 0, 0, 0, 0, 0, 0, 0, 0, 0, 0, 0, 0, 0, 0, 0, 0, 0, 0, 0, 0, 0, 0, 0, 0, 0, 0, 0, 0, 0, 0, 0, 0, 0, 0, 0, 0, 0, 0, 0, 0, 0, 0, 0, 0, 0, 0, 0, 0, 0, 0, 0, 0, 0, 0, 0, 0, 0, 0, 0, 0, 0, 0, 0, 0, 0, 0, 0, 0, 0, 0, 0, 0, 0, 0, 0, 0, 0, 0, 0, 0, 0, 0, 0, 0, 0, 0, 0, 0, 0, 0, 0, 0, 0, 0, 0, 0, 0, 0, 0],
         "height":24,
         "name":"topTopTopLayer",
         "opacity":1,
         "type":"tilelayer",
         "visible":true,
         "width":48,
         "x":0,
         "y":0
        }],
 "nextobjectid":1,
 "orientation":"orthogonal",
 "renderorder":"right-down",
 "tileheight":32,
 "tilesets":[
        {
         "columns":60,
         "firstgid":1,
         "image":"..\/level1Images\/nature_tiles4.png",
         "imageheight":1080,
         "imagewidth":1920,
         "margin":0,
         "name":"nature_tiles4",
         "spacing":0,
         "tilecount":1980,
         "tileheight":32,
         "tilewidth":32,
         "transparentcolor":"#ffffff"
        }, 
        {
         "columns":16,
         "firstgid":1981,
         "image":"..\/level2Images\/deserthouses.png",
         "imageheight":512,
         "imagewidth":512,
         "margin":0,
         "name":"deserthouses",
         "spacing":0,
         "tilecount":256,
         "tileheight":32,
         "tilewidth":32,
         "transparentcolor":"#000000"
        }, 
        {
         "columns":2,
         "firstgid":2237,
         "image":"..\/level2Images\/miniboat.png",
         "imageheight":160,
         "imagewidth":80,
         "margin":0,
         "name":"miniboat",
         "spacing":0,
         "tilecount":10,
         "tileheight":32,
         "tilewidth":32,
         "transparentcolor":"#003039"
        }, 
        {
         "columns":16,
         "firstgid":2247,
         "image":"..\/level2Images\/water.png",
         "imageheight":384,
         "imagewidth":512,
         "margin":0,
         "name":"water",
         "spacing":0,
         "tilecount":192,
         "tileheight":32,
         "tilewidth":32,
         "transparentcolor":"#003039"
        }, 
        {
         "columns":6,
         "firstgid":2439,
         "image":"..\/level2Images\/train.png",
         "imageheight":288,
         "imagewidth":192,
         "margin":0,
         "name":"train",
         "spacing":0,
         "tilecount":54,
         "tileheight":32,
         "tilewidth":32,
         "transparentcolor":"#000000"
        }, 
        {
         "columns":21,
         "firstgid":2493,
         "image":"..\/level2Images\/trees.png",
         "imageheight":450,
         "imagewidth":700,
         "margin":0,
         "name":"trees",
         "spacing":0,
         "tilecount":294,
         "tileheight":32,
         "tilewidth":32,
         "transparentcolor":"#000000"
        }],
 "tilewidth":32,
 "version":1,
 "width":48
}